{
    "_id": "A93flWUsot3FmC7t",
    "data": {
        "attributes": {
            "ac": {
                "value": 27
            },
            "hardness": 0,
            "hasHealth": true,
            "hp": {
                "details": "",
                "max": 70,
                "temp": 0,
                "tempmax": 0,
                "value": 70
            },
            "stealth": {
                "details": "(trained)",
                "value": 18
            }
        },
        "creatureType": "",
        "details": {
            "description": "Poisonous mold spores assault nearby creatures.",
            "disable": "Survival DC 26 (expert) to remove the mold without triggering the spores",
            "isComplex": false,
            "level": 8,
            "reset": "",
            "routine": ""
        },
        "flavourText": "",
        "nethysUrl": "",
        "recallKnowledgeText": "",
        "saves": {
            "fortitude": {
                "rank": 0,
                "saveDetail": "",
                "value": 17
            },
            "reflex": {
                "rank": 0,
                "saveDetail": "",
                "value": 13
            },
            "will": {
                "rank": 0,
                "saveDetail": "",
                "value": 0
            }
        },
        "schema": {
            "version": {
                "value": ""
            }
        },
        "sidebarText": "",
        "source": {
            "value": ""
        },
        "statusEffects": [],
        "traits": {
            "ci": [],
            "di": {
                "custom": "",
                "selected": {},
                "value": [
                    "critical-hits",
                    "object-immunities",
                    "precision"
                ]
            },
            "dr": [],
            "dv": [],
            "rarity": {
                "value": "common"
            },
            "traits": {
                "custom": "",
                "value": [
                    "environmental",
                    "fungus"
                ]
            }
        }
    },
    "effects": [],
    "flags": {},
    "img": "systems/pf2e/icons/default-icons/hazard.svg",
    "items": [
        {
            "_id": "eTpo3PPNbe4sFYhD",
            "data": {
                "actionCategory": {
                    "value": ""
                },
                "actionType": {
                    "value": "reaction"
                },
                "actions": {
                    "value": ""
                },
                "description": {
                    "chat": "",
                    "unidentified": "",
                    "value": "<p><strong>Trigger</strong> A creature moves into the mold's space or damages the mold. The mold can't use this reaction if it's in direct sunlight or if the damage was fire damage.<br /><strong>Effect</strong> The triggering creature and all creatures within 10 feet are exposed to yellow mold spores.</p>"
                },
                "requirements": {
                    "value": ""
                },
                "rules": [],
                "source": {
                    "value": ""
                },
                "traits": {
                    "custom": "",
                    "rarity": {
                        "value": "common"
                    },
                    "value": []
                },
                "trigger": {
                    "value": ""
                },
                "usage": {
                    "value": "held-in-one-hand"
                },
                "weapon": {
                    "value": ""
                }
            },
            "effects": [],
            "flags": {},
            "img": "systems/pf2e/icons/actions/Reaction.png",
            "name": "Spore Explosion ",
            "type": "action"
        },
        {
            "_id": "tyAeSBnHmP9Nuh2k",
            "data": {
                "actionCategory": {
                    "value": ""
                },
                "actionType": {
                    "value": "passive"
                },
                "actions": {
                    "value": ""
                },
                "description": {
                    "chat": "",
                    "unidentified": "",
                    "value": "<p>Any drained condition from the spores persists after the poison's duration ends; <strong>Saving Throw</strong> DC 26 Fortitude; <strong>Maximum Duration</strong> 6 rounds; <strong>Stage 1</strong> 1d8 poison damage and drained 1 (1 round); <strong>Stage 2</strong> 2d8 poison damage and drained 2 (1 round); <strong>Stage 3</strong> 3d8 poison damage and drained 3 (1 round)</p>"
                },
                "requirements": {
                    "value": ""
                },
                "rules": [],
                "source": {
                    "value": ""
                },
                "traits": {
                    "custom": "",
                    "rarity": {
                        "value": "common"
                    },
                    "value": [
                        "inhaled",
                        "poison"
                    ]
                },
                "trigger": {
                    "value": ""
                },
                "usage": {
                    "value": "held-in-one-hand"
                },
                "weapon": {
                    "value": ""
                }
            },
            "effects": [],
            "flags": {},
            "img": "systems/pf2e/icons/actions/Passive.png",
            "name": "Yellow Mold Spores",
            "type": "action"
        }
    ],
    "name": "Yellow Mold",
    "permission": {
        "default": 0
    },
    "token": {
        "actorData": {},
        "actorId": "A93flWUsot3FmC7t",
        "actorLink": false,
        "bar1": {},
        "bar2": {},
        "brightLight": 0,
        "brightSight": 0,
        "dimLight": 0,
        "dimSight": 0,
        "displayBars": 0,
        "displayName": 0,
        "disposition": -1,
        "flags": {},
        "height": 1,
        "img": "systems/pf2e/icons/default-icons/hazard.svg",
        "lightAlpha": 1,
        "lightAngle": 360,
        "lockRotation": false,
        "name": "Yellow Mold",
        "randomImg": false,
        "rotation": 0,
        "scale": 1,
        "sightAngle": 360,
        "tint": null,
        "vision": false,
        "width": 1
    },
    "type": "hazard"
}
