{
    "_id": "kWc1fhmv9LBiTuei",
    "data": {
        "active": true,
        "alsoApplies": {
            "linked": [
                {
                    "condition": "Flat-Footed"
                },
                {
                    "condition": "Immobilized"
                }
            ],
            "unlinked": []
        },
        "base": "Grabbed",
        "description": {
            "chat": "",
            "unidentified": "",
            "value": "<p>You're held in place by another creature, giving you the @Compendium[pf2e.conditionitems.Flat-Footed]{Flat-Footed} and @Compendium[pf2e.conditionitems.Immobilized]{Immobilized} conditions. If you attempt a manipulate action while grabbed, you must succeed at a <a class=\"inline-roll roll\" title=\"DC 5 flat check\" data-mode=\"roll\" data-flavor=\"DC 5 flat check\" data-formula=\"1d20\"><i class=\"fas fa-dice-d20\"></i> 1d20</a> <strong>DC 5</strong> flat check or it is lost; roll the check after spending the action, but before any effects are applied.</p>"
        },
        "duration": {
            "perpetual": true,
            "text": "",
            "value": 0
        },
        "group": "",
        "hud": {
            "img": {
                "useStatusName": true,
                "value": "systems/pf2e/icons/conditions-2/grabbed.png"
            },
            "selectable": true,
            "statusName": "grabbed"
        },
        "modifiers": [],
        "overrides": [],
        "references": {
            "children": [],
            "immunityFrom": [],
            "overriddenBy": [],
            "overrides": []
        },
        "removable": true,
        "rules": [],
        "source": {
            "value": ""
        },
        "sources": {
            "hud": false
        },
        "traits": {
            "custom": "",
            "rarity": {
                "value": "common"
            },
            "value": []
        },
        "value": {
            "immutable": false,
            "isValued": false,
            "modifiers": [],
            "value": 1
        }
    },
    "effects": [],
    "flags": {
        "pf2e": {
            "condition": true
        }
    },
    "img": "systems/pf2e/icons/conditions/grabbed.png",
    "name": "Grabbed",
    "permission": {
        "default": 0
    },
    "type": "condition"
}
