{
    "_id": "kLjqmylGOXeQ5o5Y",
    "data": {
        "boosts": {
            "0": {
                "value": [
                    "str",
                    "wis"
                ]
            },
            "1": {
                "value": [
                    "cha",
                    "con",
                    "dex",
                    "int",
                    "str",
                    "wis"
                ]
            }
        },
        "description": {
            "chat": "",
            "unidentified": "",
            "value": "<p><strong>Prerequisite</strong>: Region - Mwangi Expanse</p>\n<hr />\n<p>You are a child of the Bonuwat people, and the sea's salt flows through your veins. You've taken to sailing and swimming gracefully and with ease, earning you the honorific \"wavetouched.\"</p>\n<p>Choose two ability boosts. One must be to <strong>Strength</strong> or <strong>Wisdom</strong>, and one is a free ability boost.</p>\n<p>You're trained in the Athletics skill and the Ocean Lore skill. You gain the @Compendium[pf2e.feats-srd.Underwater Marauder]{Underwater Marauder} skill feat.</p>"
        },
        "items": {
            "9ljw3": {
                "id": "iOY6YfGBaOvMNAor",
                "img": "systems/pf2e/icons/features/feats/feats.jpg",
                "level": "1",
                "name": "Underwater Marauder",
                "pack": "pf2e.feats-srd"
            }
        },
        "rules": [],
        "source": {
            "value": ""
        },
        "trainedLore": "Ocean Lore",
        "trainedSkills": {
            "value": [
                "ath"
            ]
        },
        "traits": {
            "custom": "",
            "rarity": {
                "value": "common"
            },
            "value": []
        }
    },
    "effects": [],
    "flags": {},
    "img": "icons/svg/mystery-man.svg",
    "name": "Bonuwat Wavetouched",
    "permission": {
        "default": 0
    },
    "type": "background"
}
