{
    "_id": "uJcFanGjVranEarv",
    "data": {
        "boosts": {
            "0": {
                "value": [
                    "dex",
                    "str"
                ]
            },
            "1": {
                "value": [
                    "cha",
                    "con",
                    "dex",
                    "int",
                    "str",
                    "wis"
                ]
            }
        },
        "description": {
            "chat": "",
            "unidentified": "",
            "value": "<p><strong>Prerequisite</strong>: Region - Shining Kingdoms</p>\n<hr />\n<p>You have suffered as a worker for the unscrupulous Lumber Consortium, laboring under harsh conditions in dangerous wooded regions of Andoran.</p>\n<p>Choose two ability boosts. One must be to <strong>Strength</strong> or <strong>Dexterity</strong>, and one is a free ability boost.</p>\n<p>You're trained in the Athletics skill and the Forest Lore skill. You gain the @Compendium[pf2e.feats-srd.Assurance]{Assurance} skill feat with Athletics.</p>"
        },
        "items": {
            "nffsc": {
                "id": "W6Gl9ePmItfDHji0",
                "img": "systems/pf2e/icons/features/feats/feats.jpg",
                "level": "1",
                "name": "Assurance",
                "pack": "pf2e.feats-srd"
            }
        },
        "rules": [],
        "source": {
            "value": ""
        },
        "trainedLore": "Forest Lore",
        "trainedSkills": {
            "value": [
                "ath"
            ]
        },
        "traits": {
            "custom": "",
            "rarity": {
                "value": "common"
            },
            "value": []
        }
    },
    "effects": [],
    "flags": {},
    "img": "icons/svg/mystery-man.svg",
    "name": "Lumber Consortium Laborer",
    "permission": {
        "default": 0
    },
    "type": "background"
}
