{
    "_id": "V1RAIckpUJd2OzXi",
    "data": {
        "boosts": {
            "0": {
                "value": [
                    "con",
                    "int"
                ]
            },
            "1": {
                "value": [
                    "cha",
                    "con",
                    "dex",
                    "int",
                    "str",
                    "wis"
                ]
            }
        },
        "description": {
            "chat": "",
            "unidentified": "",
            "value": "<p><strong>Prerequisite</strong>: Region - Impossible Lands</p>\n<hr />\n<p>Exposure to the corrupting influence of the Mana Wastes' strange energies has warped your inner essence, resulting in unpredictable interactions with magic items and more than a little know-how about surviving under bizarre and adverse natural conditions.</p>\n<p>Choose two ability boosts. One must be to <strong>Constitution</strong> or <strong>Intelligence</strong>, and one is a free ability boost.</p>\n<p>You're trained in the Arcana skill and the Wilderness Lore skill. You gain the @Compendium[pf2e.feats-srd.Trick Magic Item]{Trick Magic Item} skill feat.</p>"
        },
        "items": {
            "exsd0": {
                "id": "uR62fVC9FyQAMCO1",
                "img": "systems/pf2e/icons/features/feats/feats.jpg",
                "level": "1",
                "name": "Trick Magic Item",
                "pack": "pf2e.feats-srd"
            }
        },
        "rules": [],
        "source": {
            "value": ""
        },
        "trainedLore": "Wilderness Lore",
        "trainedSkills": {
            "value": [
                "arc"
            ]
        },
        "traits": {
            "custom": "",
            "rarity": {
                "value": "common"
            },
            "value": []
        }
    },
    "effects": [],
    "flags": {},
    "img": "icons/svg/mystery-man.svg",
    "name": "Mana Wastes Refugee",
    "permission": {
        "default": 0
    },
    "type": "background"
}
