{
    "_id": "1gi4mdZYNgPrzWHc",
    "data": {
        "MAP": {
            "value": ""
        },
        "ability": {
            "value": "str"
        },
        "baseItem": "rhoka-sword",
        "bonus": {
            "value": 0
        },
        "bonusDamage": {
            "value": 0
        },
        "brokenThreshold": {
            "value": 0
        },
        "bulkCapacity": {
            "value": ""
        },
        "collapsed": {
            "value": false
        },
        "containerId": {
            "value": ""
        },
        "damage": {
            "damageType": "slashing",
            "dice": 1,
            "die": "d8",
            "value": ""
        },
        "description": {
            "chat": "",
            "unidentified": "",
            "value": "<p>The twin serrated blades of this legendary rhoka sword are dull black and constantly drip with blood. Life's Last Breath is said to have been forged centuries ago for an unknown urdefhan general and has since fallen into the hands of countless other powerful urdefhan warlords.</p>\n<p>Life's Last Breath is a +3 greater striking @Compendium[pf2e.equipment-srd.Unholy]{Unholy} @Compendium[pf2e.equipment-srd.Wounding]{Wounding} rhoka sword with the following special abilities.</p>\n<hr />\n<p><strong>Activate</strong> <span style=\"font-family: 'Pathfinder2eActions'; font-size: 1.8em; display: inline;\">R</span> command</p>\n<p><strong>Frequency</strong> once per day</p>\n<p><strong>Requirements</strong> You successfully Strike a creature with <em>Life's Last Breath</em></p>\n<p><strong>Effect</strong> You cast a 9th-level @Compendium[pf2e.spells-srd.Paralyze]{Paralyze} spell on the target.</p>\n<hr />\n<p><strong>Activate</strong> <span style=\"font-family: 'Pathfinder2eActions'; font-size: 1.8em; display: inline;\">R</span> envision</p>\n<p><strong>Frequency</strong> once per 10 minutes</p>\n<p><strong>Trigger</strong> You successfully Strike a creature with <em>Life's Last Breath</em></p>\n<p><strong>Effect</strong> The target must succeed at a DC 38 Fortitude save or take [[/r 4d6]] negative damage; you gain an equal amount of temporary Hit Points that last 1 minute.</p>"
        },
        "equipped": {
            "value": false
        },
        "equippedBulk": {
            "value": ""
        },
        "group": {
            "value": "sword"
        },
        "hands": {
            "value": ""
        },
        "hardness": {
            "value": 0
        },
        "hp": {
            "value": 0
        },
        "identification": {
            "status": "identified"
        },
        "identified": {
            "value": true
        },
        "invested": {
            "value": false
        },
        "level": {
            "value": "18"
        },
        "maxHp": {
            "value": 0
        },
        "negateBulk": {
            "value": "0"
        },
        "potencyRune": {
            "value": "3"
        },
        "preciousMaterial": {
            "value": ""
        },
        "preciousMaterialGrade": {
            "value": ""
        },
        "price": {
            "value": "23,500 gp"
        },
        "property1": {
            "critDamage": "",
            "critDamageType": "",
            "critDice": null,
            "critDie": "",
            "criticalConditionType": "",
            "criticalConditionValue": null,
            "damageType": "",
            "dice": null,
            "die": "",
            "strikeConditionType": "",
            "strikeConditionValue": null,
            "value": ""
        },
        "propertyRune1": {
            "value": "unholy"
        },
        "propertyRune2": {
            "value": "wounding"
        },
        "propertyRune3": {
            "value": ""
        },
        "propertyRune4": {
            "value": ""
        },
        "quantity": {
            "value": "1"
        },
        "range": {
            "value": ""
        },
        "reload": {
            "value": ""
        },
        "rules": [],
        "size": {
            "value": "med"
        },
        "source": {
            "value": ""
        },
        "splashDamage": {
            "value": null
        },
        "stackGroup": {
            "value": ""
        },
        "strikingRune": {
            "value": "greaterStriking"
        },
        "traits": {
            "custom": "",
            "rarity": {
                "value": "unique"
            },
            "value": [
                "deadly-d8",
                "evil",
                "magical",
                "necromancy",
                "two-hand-d10"
            ]
        },
        "usage": {
            "value": "held-in-one-hand"
        },
        "weaponType": {
            "value": "advanced"
        },
        "weight": {
            "value": "2"
        }
    },
    "effects": [],
    "flags": {},
    "img": "systems/pf2e/icons/equipment/weapons/specific-magic-weapons/lifes-last-breath.jpg",
    "name": "Life's Last Breath",
    "permission": {
        "default": 0
    },
    "type": "weapon"
}
