{
    "_id": "gDfBzU6umebo5RXP",
    "data": {
        "baseItem": null,
        "brokenThreshold": {
            "value": 0
        },
        "bulkCapacity": {
            "value": ""
        },
        "collapsed": {
            "value": false
        },
        "containerId": {
            "value": ""
        },
        "description": {
            "chat": "",
            "unidentified": "",
            "value": "<p>This thick, elegant bracelet conceals a specialized firing mechanism that can hold a single blowgun dart. You can fire the dart normally from the bracelet. Recognizing the bracelet's nature requires a successful DC 25 Perception check.</p>\n<p><strong>Activate</strong> <span style=\"font-family: 'Pathfinder2eActions'; font-size: 1.8em; display: inline;\">2</span> Interact;</p>\n<p><strong>Effect</strong> You expand the bracelet into a @Compendium[pf2e.equipment-srd.Hand Crossbow]{Hand Crossbow}. The bracelet has enough pieces to assemble up to three bolts, but the bolts contain necessary components for the bracelet. Without all of the bolt pieces, you cannot collapse the crossbow back into a bracelet.</p>"
        },
        "equipped": {
            "value": false
        },
        "equippedBulk": {
            "value": ""
        },
        "hardness": {
            "value": 0
        },
        "hp": {
            "value": 0
        },
        "identification": {
            "status": "identified"
        },
        "identified": {
            "value": true
        },
        "invested": {
            "value": false
        },
        "level": {
            "value": "3"
        },
        "maxHp": {
            "value": 0
        },
        "negateBulk": {
            "value": "0"
        },
        "preciousMaterial": {
            "value": ""
        },
        "preciousMaterialGrade": {
            "value": ""
        },
        "price": {
            "value": "60 gp"
        },
        "quantity": {
            "value": "1"
        },
        "rules": [],
        "size": {
            "value": "med"
        },
        "source": {
            "value": ""
        },
        "stackGroup": {
            "value": ""
        },
        "traits": {
            "custom": "",
            "rarity": {
                "value": "rare"
            },
            "usage": {
                "value": "worn"
            },
            "value": []
        },
        "usage": {
            "value": "held-in-one-hand"
        },
        "weight": {
            "value": "L"
        }
    },
    "effects": [],
    "flags": {},
    "img": "systems/pf2e/icons/equipment/adventuring-gear/palm-crossbow.jpg",
    "name": "Palm Crossbow",
    "permission": {
        "default": 0
    },
    "type": "equipment"
}
