{
    "_id": "dPQhe0tAa5LkPFoW",
    "data": {
        "baseItem": null,
        "brokenThreshold": {
            "value": 0
        },
        "bulkCapacity": {
            "value": ""
        },
        "collapsed": {
            "value": false
        },
        "containerId": {
            "value": ""
        },
        "description": {
            "chat": "",
            "unidentified": "",
            "value": "<p>These small brooches usually feature carved reliefs of verminous, swarming creatures. When you wear the clasp, you gain resistance 10 to physical damage from swarm creatures.</p>\n<hr />\n<p><strong>Activate</strong><span style=\"font-family: 'Pathfinder2eActions'; font-size: 1.8em; display: inline;\">2 </span>Interact, manipulate;</p>\n<p><strong>Frequency</strong> once per day;</p>\n<p><strong>Requirements</strong> a swarm creature is within your reach;</p>\n<p><strong>Effect</strong> You thrust your hand into the swarm, draw forth a squirming mass of vermin, and devour it. You recover [[/r 3d10+8]] Hit Points and deal the same amount of bludgeoning damage to the swarm. The Hit Point recovery is a positive healing effect.</p>"
        },
        "equipped": {
            "value": false
        },
        "equippedBulk": {
            "value": ""
        },
        "hardness": {
            "value": 0
        },
        "hp": {
            "value": 0
        },
        "identification": {
            "status": "identified"
        },
        "identified": {
            "value": true
        },
        "invested": {
            "value": false
        },
        "level": {
            "value": "8"
        },
        "maxHp": {
            "value": 0
        },
        "negateBulk": {
            "value": "0"
        },
        "originalName": "",
        "preciousMaterial": {
            "value": ""
        },
        "preciousMaterialGrade": {
            "value": ""
        },
        "price": {
            "value": "460 gp"
        },
        "quantity": {
            "value": "1"
        },
        "rules": [],
        "size": {
            "value": "med"
        },
        "source": {
            "value": ""
        },
        "stackGroup": {
            "value": ""
        },
        "traits": {
            "custom": "",
            "rarity": {
                "value": "uncommon"
            },
            "usage": {
                "value": "worn"
            },
            "value": [
                "abjuration",
                "invested",
                "magical"
            ]
        },
        "usage": {
            "value": "held-in-one-hand"
        },
        "weight": {
            "value": "-"
        }
    },
    "effects": [],
    "flags": {},
    "img": "systems/pf2e/icons/equipment/worn-items/other-worn-items/swarmeaters-clasp.jpg",
    "name": "Swarmeater's Clasp",
    "permission": {
        "default": 0
    },
    "type": "equipment"
}
