{
    "_id": "mDNDs5P8ZAJXYbDL",
    "data": {
        "activation": {
            "condition": "",
            "cost": 0,
            "type": ""
        },
        "autoDestroy": {
            "_deprecated": true,
            "value": true
        },
        "autoUse": {
            "_deprecated": true,
            "value": true
        },
        "baseItem": null,
        "brokenThreshold": {
            "value": 0
        },
        "bulkCapacity": {
            "value": ""
        },
        "charges": {
            "_deprecated": true,
            "max": "1",
            "value": "1"
        },
        "collapsed": {
            "value": false
        },
        "consumableType": {
            "value": "poison"
        },
        "consume": {
            "_deprecated": true,
            "value": ""
        },
        "containerId": {
            "value": ""
        },
        "description": {
            "chat": "",
            "unidentified": "",
            "value": "<p>Toad tears can be mixed with any other foodstuff or drink, but the poison can also be ingested as is. The process of refining giant toad poison lessens its deadly qualities, and as a result, toad tears are rarely directly fatal. Yet those who are exposed to toad tears often lose control of their actions, making it a dangerous poison nevertheless.</p>\n<hr />\n<p><strong>Activate</strong> <span style=\"font-family: 'Pathfinder2eActions'; font-size: 1.8em; display: inline;\">A</span> Interact (Ingested)</p>\n<p><strong>Saving Throw</strong> DC 19 Fortitude</p>\n<p><strong>Onset</strong> 5 minutes</p>\n<p><strong>Maximum Duration</strong> 30 minutes</p>\n<p><strong>Stage 1</strong> @Compendium[pf2e.conditionitems.Stupefied]{Stupefied} 1 (10 minutes)</p>\n<p><strong>Stage 2</strong> stupefied 1 and @Compendium[pf2e.conditionitems.Confused]{Confused} (1 minute) <br /></p>"
        },
        "duration": {
            "units": "",
            "value": null
        },
        "equipped": {
            "value": false
        },
        "equippedBulk": {
            "value": ""
        },
        "hardness": {
            "value": 0
        },
        "hp": {
            "value": 0
        },
        "identification": {
            "status": "identified"
        },
        "identified": {
            "value": true
        },
        "invested": {
            "value": false
        },
        "level": {
            "value": "2"
        },
        "maxHp": {
            "value": 0
        },
        "negateBulk": {
            "value": "0"
        },
        "preciousMaterial": {
            "value": ""
        },
        "preciousMaterialGrade": {
            "value": ""
        },
        "price": {
            "value": "6 gp"
        },
        "quantity": {
            "value": "1"
        },
        "range": {
            "long": null,
            "units": "",
            "value": null
        },
        "rules": [],
        "size": {
            "value": "med"
        },
        "source": {
            "value": ""
        },
        "spell": {
            "data": null,
            "heightenedLevel": null
        },
        "stackGroup": {
            "value": ""
        },
        "target": {
            "type": "",
            "units": "",
            "value": null
        },
        "traits": {
            "custom": "",
            "rarity": {
                "value": "common"
            },
            "usage": {
                "value": "held-in-one-hand"
            },
            "value": [
                "alchemical",
                "consumable",
                "ingested",
                "poison"
            ]
        },
        "usage": {
            "value": "held-in-one-hand"
        },
        "uses": {
            "autoDestroy": true,
            "autoUse": true,
            "max": 0,
            "per": null,
            "value": 0
        },
        "weight": {
            "value": "L"
        }
    },
    "effects": [],
    "flags": {},
    "img": "systems/pf2e/icons/equipment/alchemical-items/alchemical-poisons/toad-tears.jpg",
    "name": "Toad Tears",
    "permission": {
        "default": 0
    },
    "type": "consumable"
}
