{
    "_id": "oHUIqVPBpHAbN3qO",
    "data": {
        "attributes": {
            "ac": {
                "value": 21
            },
            "hardness": 0,
            "hasHealth": true,
            "hp": {
                "details": "",
                "max": 52,
                "temp": 0,
                "tempmax": 0,
                "value": 52
            },
            "stealth": {
                "details": "Expert",
                "value": 16
            }
        },
        "creatureType": "",
        "details": {
            "description": "A field of grass-like fungal filaments amid clusters of softly glowing, long-stalked mushrooms.",
            "disable": "Survival DC 22 (expert) to remove a 5-foot-patch without triggering the mushrooms.",
            "isComplex": false,
            "level": 5,
            "reset": "",
            "routine": ""
        },
        "flavourText": "",
        "nethysUrl": "",
        "recallKnowledgeText": "",
        "saves": {
            "fortitude": {
                "rank": 0,
                "saveDetail": "",
                "value": 13
            },
            "reflex": {
                "rank": 0,
                "saveDetail": "",
                "value": 9
            },
            "will": {
                "rank": 0,
                "saveDetail": "",
                "value": null
            }
        },
        "schema": {
            "version": {
                "value": ""
            }
        },
        "sidebarText": "",
        "source": {
            "value": ""
        },
        "statusEffects": [],
        "traits": {
            "ci": [],
            "di": {
                "custom": "",
                "selected": {},
                "value": [
                    "critical-hits",
                    "object-immunities",
                    "precision"
                ]
            },
            "dr": [],
            "dv": [
                {
                    "exceptions": "",
                    "label": "Cold",
                    "type": "cold",
                    "value": "10"
                }
            ],
            "rarity": {
                "value": "common"
            },
            "size": {
                "value": "med"
            },
            "traits": {
                "custom": "Fungus",
                "value": [
                    "environmental",
                    "custom"
                ]
            }
        }
    },
    "effects": [],
    "flags": {},
    "img": "systems/pf2e/icons/default-icons/hazard.svg",
    "items": [
        {
            "_id": "Z6mjzInaKKCOyvbM",
            "data": {
                "actionCategory": {
                    "value": ""
                },
                "actionType": {
                    "value": "reaction"
                },
                "actions": {
                    "value": ""
                },
                "description": {
                    "chat": "",
                    "unidentified": "",
                    "value": "<p><strong>Trigger</strong>: A creature moves into the mushrooms' space or damages the mushrooms. The mushrooms can't use this reaction if the damage was cold damage.</p>\n<p><strong>Effect</strong>: The triggering creature and all creatures within 10 feet are sprayed with itchy, distracting, glowing spores and must attempt a DC 22 Reflex save. On a failed save, the creatures become @Compendium[pf2e.conditionitems.Sickened]{Sickened 1} and @Compendium[pf2e.conditionitems.Stupefied]{Stupefied 1} (or @Compendium[pf2e.conditionitems.Sickened]{Sickened 2} and @Compendium[pf2e.conditionitems.Stupefied]{Stupefied 2} on a critical failure) and take a -4 penalty to Stealth checks until the spores lose potency in 24 hours or are removed. This requires washing them off by bathing in water for a minute, a @Compendium[pf2e.spells-srd.Prestidigitation]{Prestidigitation} spell, or a similar measure allowed by the GM.</p>"
                },
                "requirements": {
                    "value": ""
                },
                "rules": [],
                "slug": null,
                "source": {
                    "value": ""
                },
                "traits": {
                    "custom": "",
                    "rarity": {
                        "value": "common"
                    },
                    "selected": {},
                    "value": []
                },
                "trigger": {
                    "value": ""
                },
                "usage": {
                    "value": "held-in-one-hand"
                },
                "weapon": {
                    "value": ""
                }
            },
            "effects": [],
            "flags": {},
            "img": "systems/pf2e/icons/actions/Reaction.png",
            "name": "Glowing Spores",
            "sort": 100000,
            "type": "action"
        }
    ],
    "name": "Gloomglow Mushrooms",
    "permission": {
        "default": 0
    },
    "token": {
        "actorId": "oHUIqVPBpHAbN3qO",
        "actorLink": false,
        "bar1": {
            "attribute": "attributes.hp"
        },
        "bar2": {},
        "brightLight": 0,
        "brightSight": 0,
        "dimLight": 0,
        "dimSight": 0,
        "displayBars": 20,
        "displayName": 20,
        "disposition": 0,
        "flags": {},
        "height": 1,
        "img": "systems/pf2e/icons/default-icons/hazard.svg",
        "lightAlpha": 1,
        "lightAngle": 360,
        "lightAnimation": {
            "intensity": 5,
            "speed": 5
        },
        "lockRotation": false,
        "name": "Gloomglow Mushrooms",
        "randomImg": false,
        "rotation": 0,
        "scale": 1,
        "sightAngle": 360,
        "tint": null,
        "vision": false,
        "width": 1
    },
    "type": "hazard"
}
