{
    "_id": "SkZAQRkLLkmBQNB9",
    "data": {
        "actionCategory": {
            "value": ""
        },
        "actionType": {
            "value": "action"
        },
        "actions": {
            "value": "1"
        },
        "description": {
            "chat": "",
            "unidentified": "",
            "value": "<p>You attempt to escape from being @Compendium[pf2e.conditionitems.Grabbed]{Grabbed}, @Compendium[pf2e.conditionitems.Immobilized]{Immobilized}, or @Compendium[pf2e.conditionitems.Restrained]{Restrained}. Choose one creature, object, spell effect, hazard, or other impediment imposing any of those conditions on you. Attempt a check using your unarmed attack modifier against the DC of the effect. This is typically the Athletics DC of a creature grabbing you, the Thievery DC of a creature who tied you up, the spell DC for a spell effect, or the listed Escape DC of an object, hazard, or other impediment. You can attempt an Acrobatics or Athletics check instead of using your attack modifier if you choose (but this action still has the attack trait).</p>\n<hr />\n<p><strong>Critical Success</strong> You get free and remove the grabbed, immobilized, and restrained conditions imposed by your chosen target. You can then Stride up to 5 feet.</p>\n<p><strong>Success</strong> You get free and remove the grabbed, immobilized, and restrained conditions imposed by your chosen target.</p>\n<p><strong>Critical Failure</strong> You don't get free, and you can't attempt to Escape again until your next turn.</p>"
        },
        "requirements": {
            "value": ""
        },
        "rules": [],
        "source": {
            "value": ""
        },
        "traits": {
            "custom": "",
            "rarity": {
                "value": "common"
            },
            "value": [
                "attack",
                "general"
            ]
        },
        "trigger": {
            "value": ""
        },
        "weapon": {
            "value": ""
        }
    },
    "effects": [],
    "flags": {},
    "img": "systems/pf2e/icons/actions/OneAction.png",
    "name": "Escape",
    "permission": {
        "default": 0
    },
    "type": "action"
}
