{
    "_id": "Rlp7ND33yYfxiEWi",
    "data": {
        "actionCategory": {
            "value": ""
        },
        "actionType": {
            "value": "free"
        },
        "actions": {
            "value": ""
        },
        "description": {
            "chat": "",
            "unidentified": "",
            "value": "<p><strong>Trigger</strong> Your Strike hits a @Compendium[pf2e.conditionitems.Flat-Footed]{Flat-Footed} creature and deals damage</p>\n<hr />\n<p>The target attempts a Fortitude save at your class DC. It then becomes temporarily immune to your Master Strike for 1 day.</p>\n<hr />\n<p><strong>Critical Success</strong> The target is unaffected.</p>\n<p><strong>Success</strong> The target is @Compendium[pf2e.conditionitems.Enfeebled]{Enfeebled 2} until the end of your next turn.</p>\n<p><strong>Failure</strong> The target is @Compendium[pf2e.conditionitems.Paralyzed]{Paralyzed} for 4 rounds.</p>\n<p><strong>Critical Failure</strong> The target is paralyzed for 4 rounds, knocked @Compendium[pf2e.conditionitems.Unconscious]{Unconscious} for 2 hours, or killed (your choice).</p>"
        },
        "requirements": {
            "value": ""
        },
        "rules": [],
        "source": {
            "value": ""
        },
        "traits": {
            "custom": "",
            "rarity": {
                "value": "common"
            },
            "value": [
                "rogue"
            ]
        },
        "trigger": {
            "value": ""
        },
        "weapon": {
            "value": ""
        }
    },
    "effects": [],
    "flags": {},
    "img": "systems/pf2e/icons/actions/FreeAction.png",
    "name": "Master Strike",
    "permission": {
        "default": 0
    },
    "type": "action"
}
