{
    "_id": "88kqcDmsoAEddzUt",
    "data": {
        "description": {
            "chat": "",
            "unidentified": "",
            "value": "<p>Granted by @Compendium[pf2e.equipment-srd.Boots of Elvenkind]{Boots of Elvenkind}</p>\n<p>Automatically applied effects:</p>\n<ul>\n<li>A +5-foot status bonus to your land Speed</li>\n</ul>"
        },
        "duration": {
            "expiry": "turn-end",
            "sustained": false,
            "unit": "rounds",
            "value": 0
        },
        "level": {
            "value": 5
        },
        "rules": [
            {
                "key": "PF2E.RuleElement.FlatModifier",
                "selector": "land-speed",
                "type": "status",
                "value": 5
            },
            {
                "key": "PF2E.RuleElement.TokenEffectIcon"
            }
        ],
        "source": {
            "value": ""
        },
        "start": {
            "initiative": null,
            "value": 0
        },
        "traits": {
            "custom": "",
            "rarity": {
                "value": "common"
            },
            "value": []
        }
    },
    "effects": [],
    "flags": {},
    "img": "systems/pf2e/icons/equipment/worn-items/other-worn-items/boots-of-elvenkind.jpg",
    "name": "Effect: Boots of Elvenkind",
    "permission": {
        "default": 0
    },
    "type": "effect"
}
