{
    "_id": "lLP56tbG689TNKW5",
    "data": {
        "description": {
            "chat": "",
            "unidentified": "",
            "value": "<p>Granted by @Compendium[pf2e.equipment-srd.Bracelets of Dashing]{Bracelets of Dashing}</p>\n<p>Automatically applied effects:</p>\n<ul>\n<li>gain a +10-foot status bonus to Speed</li>\n</ul>"
        },
        "duration": {
            "expiry": "turn-start",
            "sustained": false,
            "unit": "minutes",
            "value": 1
        },
        "level": {
            "value": 3
        },
        "rules": [
            {
                "key": "PF2E.RuleElement.FlatModifier",
                "selector": "speed",
                "type": "status",
                "value": 10
            },
            {
                "key": "PF2E.RuleElement.TokenEffectIcon"
            }
        ],
        "source": {
            "value": ""
        },
        "start": {
            "initiative": null,
            "value": 0
        },
        "traits": {
            "custom": "",
            "rarity": {
                "value": "common"
            },
            "value": []
        }
    },
    "effects": [],
    "flags": {},
    "img": "systems/pf2e/icons/equipment/worn-items/other-worn-items/bracelets-of-dashing.jpg",
    "name": "Effect: Bracelets of Dashing",
    "permission": {
        "default": 0
    },
    "type": "effect"
}
