{
    "_id": "A0C86V3MUECpX5jd",
    "data": {
        "description": {
            "chat": "",
            "unidentified": "",
            "value": "<p>It gains a swim Speed of 25 feet (or Speed of 25 feet if it already has a swim Speed).</p>"
        },
        "level": {
            "value": 1
        },
        "rules": [
            {
                "key": "PF2E.RuleElement.BaseSpeed",
                "selector": "land",
                "value": 25
            },
            {
                "key": "PF2E.RuleElement.BaseSpeed",
                "selector": "swim",
                "value": 25
            }
        ],
        "source": {
            "value": ""
        },
        "traits": {
            "custom": "",
            "rarity": {
                "value": "common"
            },
            "value": []
        }
    },
    "effects": [],
    "flags": {},
    "img": "icons/svg/mystery-man.svg",
    "name": "Amphibious",
    "permission": {
        "default": 0
    },
    "type": "effect"
}
