{
    "_id": "57b8u8s3fV0UCrgJ",
    "data": {
        "description": {
            "chat": "",
            "unidentified": "",
            "value": "<p>Your plant familiar can change shape as a single action, transforming into a Tiny plant of a type roughly similar to the familiar's nature. This otherwise uses the effects of <em>tree shape</em>. You must have a familiar with the plant trait, such as a leshy, to select this ability.</p>"
        },
        "level": {
            "value": 1
        },
        "rules": [],
        "source": {
            "value": ""
        },
        "traits": {
            "custom": "",
            "rarity": {
                "value": "common"
            },
            "value": []
        }
    },
    "effects": [],
    "flags": {},
    "img": "icons/svg/mystery-man.svg",
    "name": "Plant Form",
    "permission": {
        "default": 0
    },
    "type": "effect"
}
