{
    "_id": "Thhcli0PR7HBBcPX",
    "data": {
        "actionCategory": {
            "value": ""
        },
        "actionType": {
            "value": "passive"
        },
        "actions": {
            "value": ""
        },
        "description": {
            "value": "<p>You have tapped into the ancient magic used by alghollthu masters (also known as aboleths) to mold the flesh of your ancestors. You can use this magic to transfigure other beings. You gain 3rd-level @Compendium[pf2e.spells-srd.Feet to Fins]{Feet to Fins} and 2nd-level @Compendium[pf2e.spells-srd.Water Breathing]{Water Breathing} as arcane innate spells. You can cast each of these arcane innate spells once per day.</p>"
        },
        "featType": {
            "value": "ancestry"
        },
        "level": {
            "value": 9
        },
        "location": "",
        "prerequisites": [],
        "rules": [],
        "source": {
            "value": ""
        },
        "traits": {
            "custom": "",
            "rarity": {
                "value": "common"
            },
            "value": [
                "azarketi"
            ]
        }
    },
    "effects": [],
    "flags": {},
    "img": "systems/pf2e/icons/default-icons/feats.jpg",
    "name": "Aboleth Transmutation",
    "permission": {
        "default": 0
    },
    "type": "feat"
}
