{
    "_id": "z0Bwy7lxU3DIugpo",
    "data": {
        "actionCategory": {
            "value": ""
        },
        "actionType": {
            "value": "passive"
        },
        "actions": {
            "value": ""
        },
        "description": {
            "chat": "",
            "unidentified": "",
            "value": "<p>You can speak to all animals, not just a particular subset. You gain a +1 circumstance bonus to Make an Impression on animals (which usually uses the Diplomacy skill).</p>"
        },
        "featType": {
            "value": "ancestry"
        },
        "level": {
            "value": 5
        },
        "location": "",
        "prerequisites": [
            "ability to communicate with some type of animals (such as bats or arthropods)"
        ],
        "rules": [],
        "source": {
            "value": ""
        },
        "traits": {
            "custom": "",
            "rarity": {
                "value": "common"
            },
            "value": [
                "sprite"
            ]
        },
        "usage": {
            "value": ""
        }
    },
    "effects": [],
    "flags": {},
    "img": "systems/pf2e/icons/features/feats/feats.jpg",
    "name": "Animal Speaker",
    "permission": {
        "default": 0
    },
    "type": "feat"
}
