{
    "_id": "Kz4MLcrfXFrdKhyS",
    "data": {
        "actionCategory": {
            "value": ""
        },
        "actionType": {
            "value": "passive"
        },
        "actions": {
            "value": ""
        },
        "description": {
            "chat": "",
            "unidentified": "",
            "value": "<p>As your connection to water grows, you can see more easily in places with less light, such as the depths of the ocean. You gain @Compendium[pf2e.ancestryfeatures.Low-Light Vision]{Low-Light Vision}, or you gain @Compendium[pf2e.ancestryfeatures.Darkvision]{Darkvision} if your ancestry already has low-light vision.</p>\n<hr />\n<p><strong>Special</strong> If your ancestry has neither low-light vision nor darkvision, you can take this ancestry feat a second time to gain darkvision. You can’t retrain out of this feat.</p>"
        },
        "featType": {
            "value": "ancestry"
        },
        "level": {
            "value": 1
        },
        "location": "",
        "prerequisites": [],
        "rules": [],
        "source": {
            "value": ""
        },
        "traits": {
            "custom": "",
            "rarity": {
                "value": "common"
            },
            "value": [
                "undine"
            ]
        },
        "usage": {
            "value": ""
        }
    },
    "effects": [],
    "flags": {},
    "img": "systems/pf2e/icons/features/feats/feats.jpg",
    "name": "Aquatic Eyes",
    "permission": {
        "default": 0
    },
    "type": "feat"
}
