{
    "_id": "dxujgA0NgiEvA0H8",
    "data": {
        "actionCategory": {
            "value": ""
        },
        "actionType": {
            "value": "action"
        },
        "actions": {
            "value": "1"
        },
        "description": {
            "chat": "",
            "unidentified": "",
            "value": "<p>Your blow inflicts profuse bleeding. Make a slashing or piercing @Compendium[pf2e.actionspf2e.Strike]{Strike} with a weapon or unarmed attack that allows you to add your precise strike damage. If you hit, the target also takes persistent bleed damage equal to your precise strike finisher damage.</p>"
        },
        "featType": {
            "value": "class"
        },
        "level": {
            "value": "8"
        },
        "prerequisites": {
            "value": [
                ""
            ]
        },
        "rules": [],
        "source": {
            "value": ""
        },
        "traits": {
            "custom": "",
            "rarity": {
                "value": "common"
            },
            "value": [
                "finisher",
                "swashbuckler"
            ]
        }
    },
    "effects": [],
    "flags": {},
    "img": "systems/pf2e/icons/features/feats/feats.jpg",
    "name": "Bleeding Finisher",
    "permission": {
        "default": 0
    },
    "type": "feat"
}
