{
    "_id": "DYUlMxh7TDgEh9xB",
    "data": {
        "actionCategory": {
            "value": ""
        },
        "actionType": {
            "value": "passive"
        },
        "actions": {
            "value": ""
        },
        "description": {
            "chat": "",
            "unidentified": "",
            "value": "<p>The brutality of your critical hits shakes your foes' confidence. Whenever your Strike is a critical hit and deals damage, the target is @Compendium[pf2e.conditionitems.Frightened]{Frightened} 1.</p>"
        },
        "featType": {
            "value": "class"
        },
        "level": {
            "value": 2
        },
        "prerequisites": [
            "ruffian racket"
        ],
        "rules": [],
        "source": {
            "value": ""
        },
        "traits": {
            "custom": "",
            "rarity": {
                "value": "common"
            },
            "value": [
                "rogue"
            ]
        }
    },
    "effects": [],
    "flags": {},
    "img": "systems/pf2e/icons/features/feats/feats.jpg",
    "name": "Brutal Beating",
    "permission": {
        "default": 0
    },
    "type": "feat"
}
