{
    "_id": "uMjczqcXuteoP7lf",
    "data": {
        "actionCategory": {
            "value": ""
        },
        "actionType": {
            "value": "passive"
        },
        "actions": {
            "value": ""
        },
        "description": {
            "chat": "",
            "unidentified": "",
            "value": "<p>Your fingernails grow into razor-sharp claws, and scales speckle your fingers, hands, and wrists. Your claws are agile, finesse unarmed attacks that deal [[/r 1d6 #slashing]] slashing damage and are in the brawling weapon group.</p>"
        },
        "featType": {
            "value": "archetype"
        },
        "level": {
            "value": "4"
        },
        "prerequisites": {
            "value": [
                "Dragon Disciple Dedication"
            ]
        },
        "rules": [],
        "source": {
            "value": ""
        },
        "traits": {
            "custom": "",
            "rarity": {
                "value": "common"
            },
            "value": [
                "archetype"
            ]
        }
    },
    "effects": [],
    "flags": {},
    "img": "systems/pf2e/icons/features/feats/feats.jpg",
    "name": "Claws Of The Dragon",
    "permission": {
        "default": 0
    },
    "type": "feat"
}
