{
    "_id": "QkKMile0qqmuVY67",
    "data": {
        "actionCategory": {
            "value": ""
        },
        "actionType": {
            "value": "passive"
        },
        "actions": {
            "value": ""
        },
        "description": {
            "chat": "",
            "unidentified": "",
            "value": "<p>You learn a mystical stance that transforms your ki into sticky smoke that shrouds your limbs, clinging to everything you touch.</p>\n<p>You gain the @Compendium[pf2e.spells-srd.Clinging Shadows Stance]{Clinging Shadows Stance} ki spell. Increase the number of Focus Points in your focus pool by 1. While entering the stance uses a ki spell, the shadow grasp attacks it grants are not, so you can use them as often as you like while in the stance.</p>"
        },
        "featType": {
            "value": "class"
        },
        "level": {
            "value": "8"
        },
        "prerequisites": {
            "value": [
                "ki spells"
            ]
        },
        "rules": [],
        "source": {
            "value": ""
        },
        "traits": {
            "custom": "",
            "rarity": {
                "value": "common"
            },
            "value": [
                "monk"
            ]
        }
    },
    "effects": [],
    "flags": {},
    "img": "systems/pf2e/icons/features/feats/feats.jpg",
    "name": "Clinging Shadows Initiate",
    "permission": {
        "default": 0
    },
    "type": "feat"
}
