{
    "_id": "iCv8KTZ5PcF4GqeV",
    "data": {
        "actionCategory": {
            "value": ""
        },
        "actionType": {
            "value": "passive"
        },
        "actions": {
            "value": ""
        },
        "description": {
            "chat": "",
            "unidentified": "",
            "value": "<p>You have social connections you can leverage to trade favors or meet important people. When you're in an area with connections (typically a settlement where you've spent downtime building connections, or possibly another area in the same nation), you can attempt a Society check to arrange a meeting with an important political figure or ask for a favor in exchange for a later favor of your contact's choice. The GM decides the DC based on the difficulty of the favor and the figure's prominence.</p>"
        },
        "featType": {
            "value": "skill"
        },
        "level": {
            "value": 2
        },
        "prerequisites": [
            "expert in Society",
            "Courtly Graces"
        ],
        "rules": [],
        "source": {
            "value": ""
        },
        "traits": {
            "custom": "",
            "rarity": {
                "value": "uncommon"
            },
            "value": [
                "general",
                "skill"
            ]
        }
    },
    "effects": [],
    "flags": {},
    "img": "systems/pf2e/icons/features/feats/feats.jpg",
    "name": "Connections",
    "permission": {
        "default": 0
    },
    "type": "feat"
}
