{
    "_id": "cny7ouhsoiNsWJ7X",
    "data": {
        "actionCategory": {
            "value": ""
        },
        "actionType": {
            "value": "action"
        },
        "actions": {
            "value": "2"
        },
        "description": {
            "chat": "",
            "unidentified": "",
            "value": "<p>You attempt a death-defying maneuver to distract your enemies. Select one foe within reach and attempt either an Acrobatics or Athletics check against your target's Reflex DC. If you succeed, you can Stride up to half your Speed (or up to your full Speed if you critically succeed) without triggering reactions from the target due to your movement, and the target is @Compendium[pf2e.conditionitems.Flat-Footed]{Flat-Footed} against the next melee attack you attempt against it before the end of your turn.</p>"
        },
        "featType": {
            "value": "archetype"
        },
        "level": {
            "value": 6
        },
        "prerequisites": [
            "trained in Acrobatics or Athletics",
            "Firebrand Braggart Dedication"
        ],
        "rules": [],
        "source": {
            "value": ""
        },
        "traits": {
            "custom": "",
            "rarity": {
                "value": "common"
            },
            "value": [
                "archetype"
            ]
        }
    },
    "effects": [],
    "flags": {},
    "img": "systems/pf2e/icons/features/feats/feats.jpg",
    "name": "Daring Act",
    "permission": {
        "default": 0
    },
    "type": "feat"
}
