{
    "_id": "nL82Dzh0QwkNkJDA",
    "data": {
        "actionCategory": {
            "value": ""
        },
        "actionType": {
            "value": "action"
        },
        "actions": {
            "value": "1"
        },
        "description": {
            "chat": "",
            "unidentified": "",
            "value": "<p>You attack with enough force to knock the weapon out of your foe's hands. Make a melee @Compendium[pf2e.actionspf2e.Strike]{Strike}; if you hit, you can attempt an Athletics check to @Compendium[pf2e.actionspf2e.Disarm]{Disarm} that foe.</p>"
        },
        "featType": {
            "value": "class"
        },
        "level": {
            "value": "8"
        },
        "prerequisites": {
            "value": [
                "trained in Athletics"
            ]
        },
        "rules": [],
        "source": {
            "value": ""
        },
        "traits": {
            "custom": "",
            "rarity": {
                "value": "common"
            },
            "value": [
                "barbarian",
                "flourish",
                "rage"
            ]
        }
    },
    "effects": [],
    "flags": {},
    "img": "systems/pf2e/icons/features/feats/feats.jpg",
    "name": "Disarming Assault",
    "permission": {
        "default": 0
    },
    "type": "feat"
}
