{
    "_id": "2UKf5IiUbpUbOC9a",
    "data": {
        "actionCategory": {
            "value": ""
        },
        "actionType": {
            "value": "passive"
        },
        "actions": {
            "value": ""
        },
        "description": {
            "chat": "",
            "unidentified": "",
            "value": "<p>Your sense of smell is uncanny, much like a dragon's. You gain imprecise scent with a range of 30 feet.</p>\n<p>The GM might double the range if you're downwind from the creature or halve the range if you're upwind, at their discretion.</p>"
        },
        "featType": {
            "value": "archetype"
        },
        "level": {
            "value": "4"
        },
        "prerequisites": {
            "value": [
                "Dragon Disciple Dedication"
            ]
        },
        "rules": [],
        "source": {
            "value": ""
        },
        "traits": {
            "custom": "",
            "rarity": {
                "value": "common"
            },
            "value": [
                "archetype"
            ]
        }
    },
    "effects": [],
    "flags": {},
    "img": "systems/pf2e/icons/features/feats/feats.jpg",
    "name": "Draconic Scent",
    "permission": {
        "default": 0
    },
    "type": "feat"
}
