{
    "_id": "R7c4PyTNkZb0yvoT",
    "data": {
        "actionCategory": {
            "value": ""
        },
        "actionType": {
            "value": "action"
        },
        "actions": {
            "value": "1"
        },
        "description": {
            "chat": "",
            "unidentified": "",
            "value": "<p>Putting on a grim face for the battle ahead, you encourage your allies to strike fear into their foes with vicious attacks.</p>\n<p>When you use this action, attempt an Intimidation check. The DC is usually a standard-difficulty DC of your level, but the GM can assign a different DC based on the circumstances. The effect depends on the result of your check.</p>\n<hr />\n<p><strong>Critical Success</strong> Your marshal's aura increases to a 20-foot <br />emanation, and it grants you and allies a status bonus to <br />damage rolls equal to the number of weapon damage dice <br />of the unarmed attack or weapon you are wielding that <br />has the most weapon damage dice. When you or an ally in <br />the aura critically hits an enemy with a @Compendium[pf2e.actionspf2e.Strike]{Strike}, that enemy <br />is @Compendium[pf2e.conditionitems.Frightened]{Frightened} 1.</p>\n<p><strong>Success</strong> As critical success, but your aura's size doesn't <br />increase.</p>\n<p><strong>Failure</strong> You fail to enter the stance.</p>\n<p><strong>Critical Failure</strong> You fail to enter the stance and can't take this <br />action again for 1 minute.</p>"
        },
        "featType": {
            "value": "archetype"
        },
        "level": {
            "value": 4
        },
        "prerequisites": [
            "Marshal Dedication",
            "trained in Intimidation"
        ],
        "rules": [],
        "source": {
            "value": ""
        },
        "traits": {
            "custom": "",
            "rarity": {
                "value": "common"
            },
            "value": [
                "archetype",
                "open",
                "stance"
            ]
        }
    },
    "effects": [],
    "flags": {},
    "img": "systems/pf2e/icons/features/feats/feats.jpg",
    "name": "Dread Marshal Stance",
    "permission": {
        "default": 0
    },
    "type": "feat"
}
