{
    "_id": "T3XFrLIBzir9IqD5",
    "data": {
        "actionCategory": {
            "value": ""
        },
        "actionType": {
            "value": "passive"
        },
        "actions": {
            "value": ""
        },
        "description": {
            "chat": "",
            "unidentified": "",
            "value": "<p>The alignment you impose on a weapon lasts much longer. The duration of @Compendium[pf2e.feats-srd.Align Armament]{Align Armament} increases to 1 minute.</p>"
        },
        "featType": {
            "value": "class"
        },
        "level": {
            "value": 14
        },
        "location": "",
        "prerequisites": [
            "Align Armament"
        ],
        "rules": [],
        "source": {
            "value": ""
        },
        "traits": {
            "custom": "",
            "rarity": {
                "value": "common"
            },
            "value": [
                "cleric"
            ]
        }
    },
    "effects": [],
    "flags": {},
    "img": "systems/pf2e/icons/features/feats/feats.jpg",
    "name": "Extend Armament Alignment",
    "permission": {
        "default": 0
    },
    "type": "feat"
}
