{
    "_id": "6thEFvU7aMPmLrly",
    "data": {
        "actionCategory": {
            "value": ""
        },
        "actionType": {
            "value": "passive"
        },
        "actions": {
            "value": ""
        },
        "description": {
            "chat": "",
            "unidentified": "",
            "value": "<p>Droskar knows you may need to disguise yourself in societies that oppose your faith. After spending 1 hour in prayer to Droskar, you can cast spells using the religious symbol of a different deity as your divine focus, and you can address verbal prayers to that deity. Droskar intercepts your prayers and answers them without the named god knowing.</p>\n<p>This ability applies to the religious symbol of only one god at a time-making a different religious symbol work in this fashion requires another hour of prayer and causes the old one to cease functioning. You can always use a religious symbol of Droskar without affecting this ability.</p>"
        },
        "featType": {
            "value": "class"
        },
        "level": {
            "value": "1"
        },
        "prerequisites": {
            "value": [
                "worshipper of Droskar"
            ]
        },
        "rules": [],
        "source": {
            "value": ""
        },
        "traits": {
            "custom": "",
            "rarity": {
                "value": "common"
            },
            "value": [
                "cleric"
            ]
        }
    },
    "effects": [],
    "flags": {},
    "img": "systems/pf2e/icons/features/feats/feats.jpg",
    "name": "False Faith",
    "permission": {
        "default": 0
    },
    "type": "feat"
}
