{
    "_id": "Ij6BBPzZvOFZ3prs",
    "data": {
        "actionCategory": {
            "value": ""
        },
        "actionType": {
            "value": "action"
        },
        "actions": {
            "value": "2"
        },
        "description": {
            "chat": "",
            "unidentified": "",
            "value": "<p>Your ranged attacks can shoot an unprepared foe right out of the air. Make a Strike with a ranged weapon or a thrown weapon against a flat-footed creature. If the Strike is a success and deals damage, the target must attempt a Reflex save against your class DC with the following effects.</p>\n<hr />\n<p><strong>Success:</strong> The target is unaffected.</p>\n<p><strong>Failure:</strong> The target falls up to 120 feet. If it hits the ground, it takes no damage from the fall.</p>\n<p><strong>Critical Failure:</strong> As failure, and the target can't fiy, jump, levitate, or otherwise leave the ground until the end of your next turn</p>"
        },
        "featType": {
            "value": "class"
        },
        "level": {
            "value": 12
        },
        "prerequisites": [],
        "rules": [],
        "source": {
            "value": ""
        },
        "traits": {
            "custom": "",
            "rarity": {
                "value": "common"
            },
            "value": [
                "rogue"
            ]
        }
    },
    "effects": [],
    "flags": {},
    "img": "systems/pf2e/icons/features/feats/feats.jpg",
    "name": "Felling Shot",
    "permission": {
        "default": 0
    },
    "type": "feat"
}
