{
    "_id": "Sav50NxWdLnbaDWQ",
    "data": {
        "actionCategory": {
            "value": ""
        },
        "actionType": {
            "value": "action"
        },
        "actions": {
            "value": "2"
        },
        "description": {
            "chat": "",
            "unidentified": "",
            "value": "<p><strong>Frequency</strong> once per 10 minutes</p>\n<hr />\n<p>With heavy wing beats, you whip up a furious gust and direct it at your opponents. This air blast has the effects of @Compendium[pf2e.spells-srd.Gust of Wind]{Gust of Wind} with a DC equal to your class DC or spell DC, whichever is higher.</p>"
        },
        "featType": {
            "value": "ancestry"
        },
        "level": {
            "value": 9
        },
        "location": "",
        "prerequisites": [],
        "rules": [],
        "source": {
            "value": ""
        },
        "traits": {
            "custom": "",
            "rarity": {
                "value": "common"
            },
            "value": [
                "air",
                "concentrate",
                "manipulate",
                "strix"
            ]
        },
        "usage": {
            "value": ""
        }
    },
    "effects": [],
    "flags": {},
    "img": "systems/pf2e/icons/features/feats/feats.jpg",
    "name": "Ferocious Gust",
    "permission": {
        "default": 0
    },
    "type": "feat"
}
