{
    "_id": "eJ6CytjWx2sGnKnC",
    "data": {
        "actionCategory": {
            "value": ""
        },
        "actionType": {
            "value": "passive"
        },
        "actions": {
            "value": ""
        },
        "description": {
            "chat": "",
            "unidentified": "",
            "value": "<p>Your connection to your fiendish forebears has granted you one of their resistances as well. Choose one of the following energy damage types: acid, cold, electricity, fire, or sonic. You gain resistance 5 to that damage type.</p>\n<p>Though you can choose any of these, the damage type typically matches a fiend associated with your bloodline. For instance, a hellspawn might choose resistance to fire, or a pitborn with a vrock ancestor might choose resistance to electricity.</p>"
        },
        "featType": {
            "value": "ancestry"
        },
        "level": {
            "value": "5"
        },
        "prerequisites": {
            "value": [
                ""
            ]
        },
        "rules": [],
        "source": {
            "value": ""
        },
        "traits": {
            "custom": "",
            "rarity": {
                "value": "common"
            },
            "value": [
                "tiefling"
            ]
        }
    },
    "effects": [],
    "flags": {},
    "img": "systems/pf2e/icons/features/feats/feats.jpg",
    "name": "Fiendish Resistance",
    "permission": {
        "default": 0
    },
    "type": "feat"
}
