{
    "_id": "U9nJy5suyYDE0b20",
    "data": {
        "actionCategory": {
            "value": ""
        },
        "actionType": {
            "value": "passive"
        },
        "actions": {
            "value": ""
        },
        "description": {
            "chat": "",
            "unidentified": "",
            "value": "<p>You can call upon the vital essence of your spirit to restore life to your allies and call forth vines to ensnare and bludgeon your foes. You can cast @Compendium[pf2e.spells-srd.Field of Life]{Field of Life} and @Compendium[pf2e.spells-srd.Tangling Creepers]{Tangling Creepers} as 6th-level primal innate spells once per day each. You become an expert in primal spell attack rolls and primal spell DCs.</p>"
        },
        "featType": {
            "value": "ancestry"
        },
        "level": {
            "value": 17
        },
        "location": "",
        "prerequisites": [],
        "rules": [],
        "source": {
            "value": ""
        },
        "traits": {
            "custom": "",
            "rarity": {
                "value": "common"
            },
            "value": [
                "leshy"
            ]
        },
        "usage": {
            "value": ""
        }
    },
    "effects": [],
    "flags": {},
    "img": "systems/pf2e/icons/features/feats/feats.jpg",
    "name": "Flourish And Ruin",
    "permission": {
        "default": 0
    },
    "type": "feat"
}
