{
    "_id": "0EY2WQC3Hb6Mitgz",
    "data": {
        "actionCategory": {
            "value": ""
        },
        "actionType": {
            "value": "action"
        },
        "actions": {
            "value": "1"
        },
        "description": {
            "chat": "",
            "unidentified": "",
            "value": "<p><strong>Requirements</strong> You have a foe @Compendium[pf2e.conditionitems.Grabbed]{Grabbed} or @Compendium[pf2e.conditionitems.Restrained]{Restrained}.</p>\n<hr />\n<p>Your ability to control your own ki empowers you to pressure other creatures into resuming their true forms.</p>\n<p>Attempt an Athletics check to counteract a polymorph effect currently affecting your target. If the target is somehow under the effect of multiple polymorph effects, you can choose which one to attempt to counteract, or the GM chooses randomly if the separate effects aren't obvious. The target is then temporarily immune for 1 day.</p>"
        },
        "featType": {
            "value": "class"
        },
        "level": {
            "value": "14"
        },
        "prerequisites": {
            "value": [
                ""
            ]
        },
        "rules": [],
        "source": {
            "value": ""
        },
        "traits": {
            "custom": "",
            "rarity": {
                "value": "common"
            },
            "value": [
                "attack",
                "monk"
            ]
        }
    },
    "effects": [],
    "flags": {},
    "img": "systems/pf2e/icons/features/feats/feats.jpg",
    "name": "Form Lock",
    "permission": {
        "default": 0
    },
    "type": "feat"
}
