{
    "_id": "OJxEF5FONTtEdbpP",
    "data": {
        "actionCategory": {
            "value": ""
        },
        "actionType": {
            "value": "passive"
        },
        "actions": {
            "value": ""
        },
        "description": {
            "chat": "",
            "unidentified": "",
            "value": "<p>You can heal your animal companion's wounds. You can cast @Compendium[pf2e.spells-srd.Heal Animal]{Heal Animal} as a beastmaster focus spell (Core Rulebook 399). Increase the number of Focus Points in your focus pool by 1.</p>"
        },
        "featType": {
            "value": "archetype"
        },
        "level": {
            "value": "4"
        },
        "prerequisites": {
            "value": [
                "Beastmaster Dedication"
            ]
        },
        "rules": [],
        "source": {
            "value": ""
        },
        "traits": {
            "custom": "",
            "rarity": {
                "value": "common"
            },
            "value": [
                "archetype"
            ]
        }
    },
    "effects": [],
    "flags": {},
    "img": "systems/pf2e/icons/features/feats/feats.jpg",
    "name": "Heal Animal",
    "permission": {
        "default": 0
    },
    "type": "feat"
}
