{
    "_id": "db0RHtFGhCfMx8vT",
    "data": {
        "actionCategory": {
            "value": ""
        },
        "actionType": {
            "value": "passive"
        },
        "actions": {
            "value": ""
        },
        "description": {
            "chat": "",
            "unidentified": "",
            "value": "<p>Axis’s order suffuses your body and helps it maintain coherency. You and your allies can Treat your Wounds without healer’s tools. Once per day, when someone rolls a failure or a critical failure on a check to Treat your Wounds, you can focus on your internal cohesion to increase the degree of success by one step.</p>"
        },
        "featType": {
            "value": "ancestry"
        },
        "level": {
            "value": 1
        },
        "location": "",
        "prerequisites": [],
        "rules": [],
        "source": {
            "value": ""
        },
        "traits": {
            "custom": "",
            "rarity": {
                "value": "common"
            },
            "value": [
                "aphorite"
            ]
        },
        "usage": {
            "value": ""
        }
    },
    "effects": [],
    "flags": {},
    "img": "systems/pf2e/icons/features/feats/feats.jpg",
    "name": "Internal Cohesion",
    "permission": {
        "default": 0
    },
    "type": "feat"
}
