{
    "_id": "XfCPAoNdF2XMnH7K",
    "data": {
        "actionCategory": {
            "value": ""
        },
        "actionType": {
            "value": "action"
        },
        "actions": {
            "value": "1"
        },
        "description": {
            "chat": "",
            "unidentified": "",
            "value": "<p>You stab your foe in a vital organ, possibly killing them outright. Make a @Compendium[pf2e.actionspf2e.Strike]{Strike}. On a success, you forego your precise strike damage from the finisher.</p>\n<p>Instead, your target takes additional precision damage based on a Fortitude save against your class DC. If your Strike was a critical hit, the target's saving throw outcome is one degree worse.</p>\n<hr />\n<p><strong>Critical Success</strong> You deal [[/r 6 #precision]] precision damage.</p>\n<p><strong>Success</strong> You deal [[/r 6d6 #precision]] precision damage.</p>\n<p><strong>Failure</strong> You deal [[/r 12d6 #precision]] precision damage.</p>\n<p><strong>Critical Failure</strong> You deal [[/r 18d6 #precision]] precision damage.</p>"
        },
        "featType": {
            "value": "class"
        },
        "level": {
            "value": "18"
        },
        "prerequisites": {
            "value": [
                "precise strike 6d6"
            ]
        },
        "rules": [],
        "source": {
            "value": ""
        },
        "traits": {
            "custom": "",
            "rarity": {
                "value": "common"
            },
            "value": [
                "death",
                "finisher",
                "swashbuckler"
            ]
        }
    },
    "effects": [],
    "flags": {},
    "img": "systems/pf2e/icons/features/feats/feats.jpg",
    "name": "Lethal Finisher",
    "permission": {
        "default": 0
    },
    "type": "feat"
}
