{
    "_id": "YhpR5bOquHx2JuIj",
    "data": {
        "actionCategory": {
            "value": ""
        },
        "actionType": {
            "value": "passive"
        },
        "actions": {
            "value": ""
        },
        "description": {
            "chat": "",
            "unidentified": "",
            "value": "<p>You excoriate a foe for its wrath against goodly creatures.</p>\n<p>You can cast the @Compendium[pf2e.spells-srd.Litany against Wrath]{Litany against Wrath} devotion spell. Increase the number of Focus Points in your focus pool by 1.</p>"
        },
        "featType": {
            "value": "class"
        },
        "level": {
            "value": 6
        },
        "location": "",
        "prerequisites": [
            "devotion spells",
            "tenets of good"
        ],
        "rules": [],
        "source": {
            "value": ""
        },
        "traits": {
            "custom": "",
            "rarity": {
                "value": "common"
            },
            "value": [
                "champion"
            ]
        }
    },
    "effects": [],
    "flags": {},
    "img": "systems/pf2e/icons/features/feats/feats.jpg",
    "name": "Litany Against Wrath",
    "permission": {
        "default": 0
    },
    "type": "feat"
}
