{
    "_id": "C9nb7H5u2ElBXvCR",
    "data": {
        "actionCategory": {
            "value": ""
        },
        "actionType": {
            "value": "passive"
        },
        "actions": {
            "value": ""
        },
        "description": {
            "chat": "",
            "unidentified": "",
            "value": "<p>With a minor adjustment of ratios in the formula for your serene mutagen, you gain mental protections. When you're affected by a serene mutagen, detection, revelation, and scrying effects of 9th level or lower detect nothing from you or your possessions and auras. For instance, detect magic would still detect other magic in the area, but not any magic on you.</p>"
        },
        "featType": {
            "value": "class"
        },
        "level": {
            "value": 18
        },
        "prerequisites": [],
        "rules": [],
        "source": {
            "value": ""
        },
        "traits": {
            "custom": "",
            "rarity": {
                "value": "common"
            },
            "value": [
                "alchemist"
            ]
        }
    },
    "effects": [],
    "flags": {},
    "img": "systems/pf2e/icons/features/feats/feats.jpg",
    "name": "Mindblank Mutagen",
    "permission": {
        "default": 0
    },
    "type": "feat"
}
