{
    "_id": "PcDvw2vWTzBEIX7k",
    "data": {
        "actionCategory": {
            "value": ""
        },
        "actionType": {
            "value": "passive"
        },
        "actions": {
            "value": ""
        },
        "description": {
            "chat": "",
            "unidentified": "",
            "value": "<p>Your training against necromantic effects allows you to escape the worst of their touch. If you roll a success on a saving throw against a necromancy effect, you get a critical success instead; if you roll a critical failure on such a save, you get a failure instead.</p>"
        },
        "featType": {
            "value": "archetype"
        },
        "level": {
            "value": "8"
        },
        "prerequisites": {
            "value": [
                "Necromantic Resistance"
            ]
        },
        "rules": [],
        "source": {
            "value": ""
        },
        "traits": {
            "custom": "",
            "rarity": {
                "value": "common"
            },
            "value": [
                "archetype"
            ]
        }
    },
    "effects": [],
    "flags": {},
    "img": "systems/pf2e/icons/features/feats/feats.jpg",
    "name": "Necromantic Tenacity",
    "permission": {
        "default": 0
    },
    "type": "feat"
}
