{
    "_id": "2mww0DmokYJXUEoA",
    "data": {
        "actionCategory": {
            "value": ""
        },
        "actionType": {
            "value": "passive"
        },
        "actions": {
            "value": ""
        },
        "description": {
            "chat": "",
            "unidentified": "",
            "value": "<p>You can connect with oozes (and other amorphous aberrations, at the GM's discretion) on a rudimentary level. You can use Diplomacy to @Compendium[pf2e.actionspf2e.Make an Impression]{Make an Impression} on oozes and to make very simple @Compendium[pf2e.actionspf2e.Request]{Requests} of them. In most instances, oozes will give you time to make your case.</p>"
        },
        "featType": {
            "value": "archetype"
        },
        "level": {
            "value": 8
        },
        "prerequisites": [
            "Oozemorph Dedication",
            "at least two other class feats from the Oozemorph archetype"
        ],
        "rules": [],
        "source": {
            "value": ""
        },
        "traits": {
            "custom": "",
            "rarity": {
                "value": "common"
            },
            "selected": {
                "archetype": "Archetype"
            },
            "value": [
                "archetype"
            ]
        }
    },
    "effects": [],
    "flags": {},
    "img": "systems/pf2e/icons/features/feats/feats.jpg",
    "name": "Ooze Empathy",
    "permission": {
        "default": 0
    },
    "type": "feat"
}
