{
    "_id": "Y4gYfrxjSir2Enui",
    "data": {
        "actionCategory": {
            "value": ""
        },
        "actionType": {
            "value": "passive"
        },
        "actions": {
            "value": ""
        },
        "description": {
            "chat": "",
            "unidentified": "",
            "value": "<div><strong>Archetpe</strong> @Compendium[pf2e.archetypes.Student of Perfection]{Student of Perfection}</div>\n<div></div>\n<hr />\n<p>You gain the @Compendium[pf2e.spells-srd.Perfect Strike]{Perfect Strike} ki spell. Increase the number of Focus Points in your focus pool by 1.</p>"
        },
        "featType": {
            "value": "archetype"
        },
        "level": {
            "value": "4"
        },
        "prerequisites": {
            "value": [
                "Student of Perfection Dedication"
            ]
        },
        "rules": [],
        "source": {
            "value": ""
        },
        "traits": {
            "custom": "",
            "rarity": {
                "value": "common"
            },
            "value": [
                "archetype"
            ]
        }
    },
    "effects": [],
    "flags": {},
    "img": "systems/pf2e/icons/features/feats/feats.jpg",
    "name": "Perfect Strike",
    "permission": {
        "default": 0
    },
    "type": "feat"
}
