{
    "_id": "L9aBLPG2veBkVow9",
    "data": {
        "actionCategory": {
            "value": ""
        },
        "actionType": {
            "value": "passive"
        },
        "actions": {
            "value": ""
        },
        "description": {
            "chat": "",
            "unidentified": "",
            "value": "<p>You can cast @Compendium[pf2e.spells-srd.Creation]{Creation} as an innate spell at will, choosing whether it is arcane or primal each time. The created object lasts until you spend 1 hour not within its immediate vicinity or until it is destroyed. Such objects are called persistent creations. If you cast <em>creation</em> again, any persistent creation you previously created with the spell immediately disintegrates.</p>"
        },
        "featType": {
            "value": "archetype"
        },
        "level": {
            "value": "8"
        },
        "prerequisites": {
            "value": [
                "Halcyon Speaker Dedication"
            ]
        },
        "rules": [],
        "source": {
            "value": ""
        },
        "traits": {
            "custom": "",
            "rarity": {
                "value": "common"
            },
            "value": [
                "archetype"
            ]
        }
    },
    "effects": [],
    "flags": {},
    "img": "systems/pf2e/icons/features/feats/feats.jpg",
    "name": "Persistent Creation",
    "permission": {
        "default": 0
    },
    "type": "feat"
}
