{
    "_id": "wvJBIzgS298ZRp6w",
    "data": {
        "actionCategory": {
            "value": ""
        },
        "actionType": {
            "value": "passive"
        },
        "actions": {
            "value": ""
        },
        "description": {
            "chat": "",
            "unidentified": "",
            "value": "<p>You carefully aim and gracefully deliver your debilitations. Add the following debilitations to the list you can choose from when you use Debilitating Strike.</p>\n<ul>\n<li><strong>Debilitation:</strong> The target takes an additional 2d6 precision damage from your attacks.</li>\n<li><strong>Debilitation:</strong> The target becomes flat-footed.</li>\n</ul>"
        },
        "featType": {
            "value": "class"
        },
        "level": {
            "value": 10
        },
        "prerequisites": [
            "thief racket",
            "Debilitating Strike"
        ],
        "rules": [],
        "source": {
            "value": ""
        },
        "traits": {
            "custom": "",
            "rarity": {
                "value": "common"
            },
            "value": [
                "rogue"
            ]
        }
    },
    "effects": [],
    "flags": {},
    "img": "systems/pf2e/icons/features/feats/feats.jpg",
    "name": "Precise Debilitations",
    "permission": {
        "default": 0
    },
    "type": "feat"
}
