{
    "_id": "969mPoiYANzV2261",
    "data": {
        "actionCategory": {
            "value": ""
        },
        "actionType": {
            "value": "action"
        },
        "actions": {
            "value": "2"
        },
        "description": {
            "chat": "",
            "unidentified": "",
            "value": "<p>Your ability to curl up into a tight ball comes in handy. You roll up into a ball and move up to four times your Speed in a straight line down an incline. If you reach the bottom of the incline or hit an obstacle during this first turn of movement, you stop rolling safely. Otherwise, you automatically keep rolling at this Speed during subsequent turns until you hit the bottom of the incline or an obstacle ends this movement (which can happen in the middle of your turn). You’re @Compendium[pf2e.conditionitems.Slowed]{Slowed} 2 each turn after the first that you keep rolling, and if you hit an obstacle on a turn after the first, you and the obstacle both take [[/r 4d6 #bludgeoning]] bludgeoning damage and you stop rolling.</p>"
        },
        "featType": {
            "value": "ancestry"
        },
        "level": {
            "value": 5
        },
        "location": "",
        "prerequisites": [],
        "rules": [],
        "source": {
            "value": ""
        },
        "traits": {
            "custom": "",
            "rarity": {
                "value": "common"
            },
            "value": [
                "move",
                "ratfolk"
            ]
        },
        "usage": {
            "value": ""
        }
    },
    "effects": [],
    "flags": {},
    "img": "systems/pf2e/icons/features/feats/feats.jpg",
    "name": "Ratfolk Roll",
    "permission": {
        "default": 0
    },
    "type": "feat"
}
