{
    "_id": "5SBFayX7JqKYANwa",
    "data": {
        "actionCategory": {
            "value": ""
        },
        "actionType": {
            "value": "action"
        },
        "actions": {
            "value": "2"
        },
        "description": {
            "chat": "",
            "unidentified": "",
            "value": "<p><strong>Requirements</strong> You are wielding a thrown weapon.</p>\n<hr />\n<p>You bounce your weapon off one foe to strike another. Make a ranged Strike with a thrown weapon. If this Strike hits, the weapon rebounds toward an enemy within 10 feet of the original target. Make an additional Strike against this second target.</p>\n<p>Both attacks count toward your multiple attack penalty, but the penalty doesn't increase until after you've made both attacks.</p>"
        },
        "featType": {
            "value": "class"
        },
        "level": {
            "value": 2
        },
        "prerequisites": [],
        "rules": [],
        "source": {
            "value": ""
        },
        "traits": {
            "custom": "",
            "rarity": {
                "value": "common"
            },
            "value": [
                "fighter",
                "flourish"
            ]
        }
    },
    "effects": [],
    "flags": {},
    "img": "systems/pf2e/icons/features/feats/feats.jpg",
    "name": "Rebounding Toss",
    "permission": {
        "default": 0
    },
    "type": "feat"
}
