{
    "_id": "N7IsnLDFt73r7x56",
    "data": {
        "actionCategory": {
            "value": ""
        },
        "actionType": {
            "value": "passive"
        },
        "actions": {
            "value": ""
        },
        "description": {
            "chat": "",
            "unidentified": "",
            "value": "<p>You have learned special tricks that help you follow individuals without them noticing you.</p>\n<p>When you attempt a Stealth check to @Compendium[pf2e.actionspf2e.Avoid Notice]{Avoid Notice} while following a specific target, the target takes a -2 circumstance penalty to their Perception DC. If you have master proficiency in Stealth, the penalty is -3 or -4 if you're legendary.</p>\n<p>If you start an encounter with the target while shadowing them, the target takes this penalty to their initiative roll and to their Perception DC to determine if they notice you, as normal for @Compendium[pf2e.actionspf2e.Sneak]{Sneak}.</p>"
        },
        "featType": {
            "value": "skill"
        },
        "level": {
            "value": "2"
        },
        "prerequisites": {
            "value": [
                "expert in Stealth"
            ]
        },
        "rules": [],
        "source": {
            "value": ""
        },
        "traits": {
            "custom": "",
            "rarity": {
                "value": "common"
            },
            "value": [
                "general",
                "skill"
            ]
        }
    },
    "effects": [],
    "flags": {},
    "img": "systems/pf2e/icons/features/feats/feats.jpg",
    "name": "Shadow Mark",
    "permission": {
        "default": 0
    },
    "type": "feat"
}
