{
    "_id": "1AgirzUGkyDdmENy",
    "data": {
        "actionCategory": {
            "value": ""
        },
        "actionType": {
            "value": "passive"
        },
        "actions": {
            "value": ""
        },
        "description": {
            "chat": "",
            "unidentified": "",
            "value": "<p>You dedicate yourself to the shadows. Your coloring becomes gray and gloomy, your senses adjust to the darkness, and you can sneak through darkness with ease.</p>\n<p>You gain greater @Compendium[pf2e.ancestryfeatures.Darkvision]{Darkvision}. You also gain a +2 circumstance bonus to Stealth checks when you are within dim light or darkness.</p>\n<p><strong>Special</strong> You can't select another dedication feat until you have gained two other feats from the shadowdancer archetype.</p>"
        },
        "featType": {
            "value": "archetype"
        },
        "level": {
            "value": 8
        },
        "prerequisites": [
            "master in Stealth",
            "expert in Performance"
        ],
        "rules": [],
        "source": {
            "value": ""
        },
        "traits": {
            "custom": "",
            "rarity": {
                "value": "common"
            },
            "value": [
                "archetype",
                "dedication"
            ]
        }
    },
    "effects": [],
    "flags": {},
    "img": "systems/pf2e/icons/features/feats/feats.jpg",
    "name": "Shadowdancer Dedication",
    "permission": {
        "default": 0
    },
    "type": "feat"
}
