{
    "_id": "vQiUYpdgYnXg0oDX",
    "data": {
        "actionCategory": {
            "value": ""
        },
        "actionType": {
            "value": "passive"
        },
        "actions": {
            "value": ""
        },
        "description": {
            "chat": "",
            "unidentified": "",
            "value": "<p>You've sworn an oath to put the undead to rest. Add the following tenet to your champion's code after the other tenets: \"You must end the existence of undead you encounter as long as you have a reasonable chance of success; in the unlikely event you find a good undead, you can try to work out a more peaceful way to help it recover from its undead state rather than destroying it in combat, such as helping it complete its unfinished business and find peace.\"</p>\n<p>Your Retributive Strike gains a +4 circumstance bonus to damage against an undead, or +6 if you have master proficiency with the weapon you used.</p>\n<p>@Compendium[pf2e.feat-effects.Shining Oath (Paladin)]{Shining Oath (Paladin)}</p>\n<p>Your Glimpse of Redemption's resistance against damage from an undead is 7 + your level.</p>\n<p>If you use Liberating Step triggered by an undead, your ally gains a +4 circumstance bonus to checks granted by your Liberating Step, and the ally can Step twice afterward.</p>\n<p>@Compendium[pf2e.feat-effects.Effect: Liberating Step (vs. Undead)]{Effect: Liberating Step (vs. Undead)}</p>\n<p>You don't consider undead to be legitimate authorities, even in nations ruled by undead.</p>"
        },
        "featType": {
            "value": "class"
        },
        "level": {
            "value": 2
        },
        "location": "",
        "prerequisites": [
            "tenets of good"
        ],
        "rules": [],
        "source": {
            "value": ""
        },
        "traits": {
            "custom": "",
            "rarity": {
                "value": "common"
            },
            "value": [
                "champion",
                "oath"
            ]
        }
    },
    "effects": [],
    "flags": {},
    "img": "systems/pf2e/icons/features/feats/feats.jpg",
    "name": "Shining Oath",
    "permission": {
        "default": 0
    },
    "type": "feat"
}
