{
    "_id": "gsDDw5KAb7qlPkms",
    "data": {
        "actionCategory": {
            "value": ""
        },
        "actionType": {
            "value": "passive"
        },
        "actions": {
            "value": ""
        },
        "description": {
            "chat": "",
            "unidentified": "",
            "value": "<p>Choose one cantrip from the occult spell list. You can cast this cantrip as an occult innate spell at will, heightened to a spell level equal to half your level rounded up.</p>"
        },
        "featType": {
            "value": "ancestry"
        },
        "level": {
            "value": 1
        },
        "location": "",
        "prerequisites": [],
        "rules": [],
        "source": {
            "value": ""
        },
        "traits": {
            "custom": "",
            "rarity": {
                "value": "common"
            },
            "value": [
                "fetchling"
            ]
        },
        "usage": {
            "value": ""
        }
    },
    "effects": [],
    "flags": {},
    "img": "systems/pf2e/icons/features/feats/feats.jpg",
    "name": "Shrouded Magic",
    "permission": {
        "default": 0
    },
    "type": "feat"
}
