{
    "_id": "wPHZhgKzNw4VcCFt",
    "data": {
        "actionCategory": {
            "value": ""
        },
        "actionType": {
            "value": "passive"
        },
        "actions": {
            "value": ""
        },
        "description": {
            "chat": "",
            "unidentified": "",
            "value": "<p>You can scoot swiftly across the ground. You can @Compendium[pf2e.actionspf2e.Crawl]{Crawl} up to half your Speed.</p>"
        },
        "featType": {
            "value": "general"
        },
        "level": {
            "value": 3
        },
        "prerequisites": [
            "Dexterity 16",
            "Fleet"
        ],
        "rules": [],
        "source": {
            "value": ""
        },
        "traits": {
            "custom": "",
            "rarity": {
                "value": "common"
            },
            "value": [
                "general"
            ]
        }
    },
    "effects": [],
    "flags": {},
    "img": "systems/pf2e/icons/features/feats/feats.jpg",
    "name": "Skitter",
    "permission": {
        "default": 0
    },
    "type": "feat"
}
