{
    "_id": "QZ00D2xdJnbWFzml",
    "data": {
        "actionCategory": {
            "value": ""
        },
        "actionType": {
            "value": "passive"
        },
        "actions": {
            "value": ""
        },
        "description": {
            "chat": "",
            "unidentified": "",
            "value": "<p>You can capably deliver toxins with a @Compendium[pf2e.equipment-srd.Blowgun]{Blowgun}. Your blowgun @Compendium[pf2e.actionspf2e.Strike]{Strikes} can apply injury poisons even if they deal no damage due to a creature's resistance.</p>\n<p>If you critically succeed at an attack roll using a blowgun loaded with a dart you've poisoned and the target rolls a failure on the poison's initial save, the target critically fails instead.</p>"
        },
        "featType": {
            "value": "class"
        },
        "level": {
            "value": 1
        },
        "location": "",
        "prerequisites": {
            "value": [
                ""
            ]
        },
        "rules": [
            {
                "key": "PF2E.RuleElement.Note",
                "selector": "blowgun-attack",
                "text": "<p class='compact-text'><strong>{item|name}</strong> If you critically succeed at an attack roll with a dart you've poisoned, and the target rolls a failure on the poison's initial save, the target critically fails instead.</p>"
            }
        ],
        "source": {
            "value": ""
        },
        "traits": {
            "custom": "",
            "rarity": {
                "value": "common"
            },
            "value": [
                "alchemist"
            ]
        }
    },
    "effects": [],
    "flags": {},
    "img": "systems/pf2e/icons/features/feats/feats.jpg",
    "name": "Subtle Delivery",
    "permission": {
        "default": 0
    },
    "type": "feat"
}
