{
    "_id": "sayRIHE2V6vuxr4r",
    "data": {
        "actionCategory": {
            "value": ""
        },
        "actionType": {
            "value": "passive"
        },
        "actions": {
            "value": ""
        },
        "description": {
            "chat": "",
            "unidentified": "",
            "value": "<p>Your experience keeps you on your toes, making you adaptable to even the most dangerous challenges. When you gain a fighter feat using combat flexibility, you gain three fighter feats instead of two.</p>\n<p>While the first feat must still be 8th level or lower, the second feat can be up to 14th level, and the third feat can be up to 18th level. You can use the first feat to meet the prerequisites of the second or third feats and the second feat to meet the prerequisites of the third feat. You must meet all feats' prerequisites.</p>\n<p>In addition, you can adapt to the battlefield's challenges by spending 1 hour to train. If you do, you can reselect the feats chosen with combat flexibility as if you had made your daily preparations. You can't trade out limited-use abilities that you've already used, such as @Compendium[pf2e.feats-srd.Determination]{Determination}.</p>"
        },
        "featType": {
            "value": "class"
        },
        "level": {
            "value": "20"
        },
        "prerequisites": {
            "value": [
                "improved flexibility"
            ]
        },
        "rules": [],
        "source": {
            "value": ""
        },
        "traits": {
            "custom": "",
            "rarity": {
                "value": "common"
            },
            "value": [
                "fighter"
            ]
        }
    },
    "effects": [],
    "flags": {},
    "img": "systems/pf2e/icons/features/feats/feats.jpg",
    "name": "Ultimate Flexibility",
    "permission": {
        "default": 0
    },
    "type": "feat"
}
