{
    "_id": "AdNAeWhnq5Is3AZb",
    "data": {
        "actionCategory": {
            "value": ""
        },
        "actionType": {
            "value": "passive"
        },
        "actions": {
            "value": ""
        },
        "description": {
            "chat": "",
            "unidentified": "",
            "value": "<p><strong>Major Boon</strong>: Standing watch or guarding a location counts as resting for you, preventing you from being @Compendium[pf2e.conditionitems.Fatigued]{Fatigued} due to lack of rest as long as you stand watch for at least 6 hours a day.</p>\n<p>You can recover your Focus Points (if you have them) by standing guard in addition to any other options you have available.</p>\n<p>When on guard, you gain a +4 status bonus to Perception to notice ambushes and other dangers approaching.</p>\n<p>As long as you are holding a shield, you are always Defending during exploration without needing to move at half your travel speed, and you can perform another exploration activity as well.</p>\n<p>While you are using a shield, its Hardness increases by 5.</p>"
        },
        "featType": {
            "value": "deityboon"
        },
        "level": {
            "value": "0"
        },
        "prerequisites": {
            "value": ""
        },
        "rules": [],
        "source": {
            "value": ""
        },
        "traits": {
            "custom": "",
            "rarity": {
                "value": "common"
            },
            "selected": {},
            "value": []
        }
    },
    "effects": [],
    "flags": {},
    "img": "systems/pf2e/icons/deity/Torag.png",
    "name": "Torag - Major Boon",
    "permission": {
        "default": 0
    },
    "type": "feat"
}
