{
    "_id": "FXlXmNBFiiz9oasi",
    "data": {
        "additionalLanguages": {
            "count": 0,
            "custom": "",
            "value": [
                "aklo",
                "draconic",
                "dwarven",
                "elven",
                "goblin",
                "undercommon"
            ]
        },
        "boosts": {
            "0": {
                "value": [
                    "con"
                ]
            },
            "1": {
                "value": []
            },
            "2": {
                "value": [
                    "str",
                    "dex",
                    "con",
                    "int",
                    "wis",
                    "cha"
                ]
            }
        },
        "description": {
            "value": "<p><em>Fleshwarps are people whose forms were created or radically transformed by magic, alchemy, or unnatural energies. Their unorthodox appearance can make it difficult for them to find a place for themselves in the world.</em></p>\n<hr />\n<p>Magic and science that can warp bone and twist sinew are all too common on Golarion. Fleshwarps are those who have been permanently altered by such methods—sometimes a sapient being created whole cloth from inanimate flesh, but often a victim unwillingly transformed by strange energies or sadistic creators.</p>\n<p>The ancestry name \"fleshwarp\" is an umbrella term, since on Golarion the actual fleshwarping process is more infamously well-known than are alterations caused by uncontrolled magic, technology, or fringe science. Whether practiced by Thassilonian wizards, Nexian fleshcrafters, or the drow of the Darklands, fleshwarping is the craft of reshaping flesh and mind in vats of foul magical reagents. This has led some scholars of monsters to argue that only those beings created by traditional fleshwarping should be considered fleshwarps. Regardless of the source of their altered forms, fleshwarps bear their new shape forever, transformed beings living a wild and strange existence beyond what was possible for their original ancestry.</p>\n<p>Although fleshwarps are humanoid, no two look the same. One might possess limbs in unusual places and skin as smooth as glass, while another might have a thick matting of spiny fur. Some might have animalistic features, like a boar snout, scales, or cloven hooves. Others have entirely alien appearances, such as bulging eyes on the backs of their hands. Some may have only subtly uncanny features that differentiate them, such as glowing teeth, smoking eyes, or fingernails made of bone. The only commonality among fleshwarps is their mismatched nature. Let your imagination run wild when creating a fleshwarp character!</p>\n<p>If you want a character who is tough and hardy, can change their form as they grow, and can use their wholly unique appearance to inspire awe or fear in others, you should play a fleshwarp.</p>\n<h2>You Might...</h2>\n<ul>\n<li>Embrace your unusual appearance to inspire respect or fear.</li>\n<li>Be used to relying on yourself.</li>\n<li>Distrust large groups of people, particularly mobs, based on past experiences.</li>\n</ul>\n<h2>Others Probably...</h2>\n<ul>\n<li>Find your physiology fascinating or terrifying.</li>\n<li>Assume you are an expert on strange creatures or occult phenomena.</li>\n<li>Consider you an enigmatic and unpredictable—and perhaps even dangerous—outsider.</li>\n</ul>\n<h2>Physical Description</h2>\n<p>Fleshwarps are humanoids, ranging from 5 to 7 feet tall and from just under 100 pounds to more than 300 pounds. The proportion and appearance of their limbs and features differ widely, but fleshwarps functionally have two legs, two arms, and a single head; a fleshwarp with more limbs than this should consider an appropriate ancestry feat to reflect this variance, or one of their limbs might be vestigial and mostly nonfunctional. Fleshwarps differ widely in their appearance due to the unique circumstances of their creation. Even fleshwarp siblings or two people transformed through the same procedure might look wildly different.</p>\n<h2>Society</h2>\n<p>Fleshwarps are so few in number that congregations of them are rare. They most often live on their own, with a small family group, or at the outskirts of a community. Some thrive in cities, however, where they can remain anonymous among the crowds while pursuing careers that allow them to avoid contact with people who might fear or persecute them.</p>\n<p>Fleshwarps value endurance and are quick to learn from others, so those who come into contact with others of their kind usually share stories that help each other survive, hide, or thrive more effectively. How a fleshwarp formed can be a painful or horrifying subject, one they consider rude to discuss with anyone besides close friends or loved ones.</p>\n<h2>Alignment and Religion</h2>\n<p>Fleshwarps have little to gain from the broader society, and therefore rarely work to support society in turn, beyond perhaps helping other fleshwarps. They need to be able to adapt quickly to survive on their own. As a consequence, few fleshwarps are lawful. Although bigoted or short-sighted people view fleshwarps as monsters, fleshwarps are no more or less prone to evil than any other people, and most seek only to live their lives without trouble. Most are neutral in alignment, for while alienation doesn't force a fleshwarp to feel contempt for others, neither does it encourage a fleshwarp to avoid it. This is especially true for fleshwarps living in the societies that gave birth to their traumatic transformation. Fleshwarps aren't often casually religious; most either have little to do with faith at all (viewing themselves as scorned by the gods or simply seeing faith as impractical for survival) or are exceptionally devout. Religious fleshwarps often revere Arazni, Calistria, Desna, or Gozreh; evil fleshwarps typically turn to Lamashtu, finding consolation in the Mother of Monsters.</p>\n<h2>Names</h2>\n<p>Fleshwarps can come from-and thus have names from-any culture or ancestry, but some give themselves new names after being transformed, whether to celebrate the change, recognize a new phase of their lives, or conceal their past identity. Many fleshwarps also carry a descriptive nickname granted to them by others, such as \"Triple Handed,\" \"Barkfoot,\" or \"Many-Mouth.\"</p>\n<p>Fleshwarps don't keep nicknames they find personally offensive, but they tend to keep ones that describe their distinctive appearances or that are given by people they care about.</p>\n<h3><span style=\"text-decoration: underline;\">Sample Names</span></h3>\n<p>Borble, Dag, Feff, Hurn, Kemp, Omber, Ostro, Shurni, Surm, Wumpin</p>"
        },
        "flaws": {
            "0": {
                "value": []
            }
        },
        "hp": 10,
        "items": {
            "31xm9": {
                "id": "mEDTJi7d1bTEiwUD",
                "img": "systems/pf2e/icons/default-icons/feat.svg",
                "level": 1,
                "name": "Unusual Anatomy",
                "pack": "pf2e.ancestryfeatures"
            },
            "ksxco": {
                "id": "DRtaqOHXTRtGRIUT",
                "img": "systems/pf2e/icons/features/ancestry/low-light-vision.jpg",
                "level": 1,
                "name": "Low-Light Vision",
                "pack": "pf2e.ancestryfeatures"
            }
        },
        "languages": {
            "custom": "",
            "value": [
                "common"
            ]
        },
        "reach": 5,
        "rules": [],
        "size": "med",
        "source": {
            "value": ""
        },
        "speed": 25,
        "traits": {
            "custom": "",
            "rarity": {
                "value": "rare"
            },
            "value": [
                "aberration",
                "humanoid"
            ]
        },
        "vision": "normal"
    },
    "effects": [],
    "flags": {},
    "img": "systems/pf2e/icons/default-icons/alternatives/ancestries/fleshwarp.svg",
    "name": "Fleshwarp",
    "permission": {
        "default": 0
    },
    "type": "ancestry"
}
