{
    "_id": "iJ7TVW5tDnZG9DG8",
    "data": {
        "description": {
            "value": "<p>Granted by @Compendium[pf2e.spells-srd.Competitive Edge]{Competitive Edge}.</p>\n<p>You gain a +1 status bonus to attack rolls and skill checks. If an enemy within 20 feet critically succeeds at an attack roll or skill check, your status bonus increases to +3 attack rolls or that specific skill check (whichever the foe critically succeeded at) for 1 round.</p>\n<hr />\n<p><strong>Heightened (7th)</strong> Increase the base bonus to +2 and the increased bonus after an enemy critically succeeds to +4.</p>"
        },
        "duration": {
            "expiry": "turn-start",
            "sustained": true,
            "unit": "minutes",
            "value": 1
        },
        "level": {
            "value": 4
        },
        "rules": [
            {
                "key": "PF2E.RuleElement.TokenEffectIcon"
            },
            {
                "key": "PF2E.RuleElement.ToggleProperty",
                "label": "An enemy within 20 feet critically succeeds at an attack or skill roll",
                "property": "flags.pf2e.rollOptions.all.competitive-edge"
            },
            {
                "key": "PF2E.RuleElement.FlatModifier",
                "label": "Competitive Edge (Attack)",
                "predicate": {
                    "not": [
                        "competitive-edge"
                    ]
                },
                "roll-options": [
                    "all"
                ],
                "selector": "attack",
                "type": "status",
                "value": {
                    "brackets": [
                        {
                            "end": 6,
                            "start": 4,
                            "value": 1
                        },
                        {
                            "start": 7,
                            "value": 2
                        }
                    ],
                    "field": "item|data.level.value"
                }
            },
            {
                "key": "PF2E.RuleElement.FlatModifier",
                "label": "Competitive Edge (Skill)",
                "predicate": {
                    "not": [
                        "competitive-edge"
                    ]
                },
                "roll-options": [
                    "all"
                ],
                "selector": "skill-check",
                "type": "status",
                "value": {
                    "brackets": [
                        {
                            "end": 6,
                            "start": 4,
                            "value": 1
                        },
                        {
                            "start": 7,
                            "value": 2
                        }
                    ],
                    "field": "item|data.level.value"
                }
            },
            {
                "key": "PF2E.RuleElement.FlatModifier",
                "label": "Competitive Edge (Enhanced Attack)",
                "predicate": {
                    "all": [
                        "competitive-edge"
                    ]
                },
                "roll-options": [
                    "all"
                ],
                "selector": "attack",
                "type": "status",
                "value": {
                    "brackets": [
                        {
                            "end": 6,
                            "start": 4,
                            "value": 3
                        },
                        {
                            "start": 7,
                            "value": 4
                        }
                    ],
                    "field": "item|data.level.value"
                }
            },
            {
                "key": "PF2E.RuleElement.FlatModifier",
                "label": "Competitive Edge (Enhanced Skill)",
                "predicate": {
                    "all": [
                        "competitive-edge"
                    ]
                },
                "roll-options": [
                    "all"
                ],
                "selector": "skill-check",
                "type": "status",
                "value": {
                    "brackets": [
                        {
                            "end": 6,
                            "start": 4,
                            "value": 3
                        },
                        {
                            "start": 7,
                            "value": 4
                        }
                    ],
                    "field": "item|data.level.value"
                }
            }
        ],
        "source": {
            "value": ""
        },
        "start": {
            "initiative": null,
            "value": 0
        },
        "target": null,
        "traits": {
            "custom": "",
            "rarity": {
                "value": "common"
            },
            "value": []
        }
    },
    "effects": [],
    "flags": {},
    "img": "systems/pf2e/icons/spells/competitive-edge.jpg",
    "name": "Spell Effect: Competitive Edge",
    "permission": {
        "default": 0
    },
    "type": "effect"
}
