{
    "_id": "VVMMJdIWL7fAsQf3",
    "data": {
        "actionCategory": {
            "value": ""
        },
        "actionType": {
            "value": "passive"
        },
        "actions": {
            "value": ""
        },
        "description": {
            "chat": "",
            "unidentified": "",
            "value": "<p style=\"box-sizing: border-box; user-select: text; color: #191813; font-family: Roboto, system, -apple-system, sans-serif; font-size: 13px;\">Baba Yaga teaches you how to transfer spirits into objects and freeze your foes.</p>\n<p style=\"box-sizing: border-box; user-select: text; color: #191813; font-family: Roboto, system, -apple-system, sans-serif; font-size: 13px;\"><strong style=\"box-sizing: border-box; user-select: text;\">Spell List</strong> occult</p>\n<p style=\"box-sizing: border-box; user-select: text; color: #191813; font-family: Roboto, system, -apple-system, sans-serif; font-size: 13px;\"><strong style=\"box-sizing: border-box; user-select: text;\">Patron Skill</strong> Occultism</p>\n<p style=\"box-sizing: border-box; user-select: text; color: #191813; font-family: Roboto, system, -apple-system, sans-serif; font-size: 13px;\"><strong style=\"box-sizing: border-box; user-select: text;\">Hex Cantrip</strong> @Compendium[pf2e.spells-srd.Spirit Object]{Spirit Object}</p>\n<p style=\"box-sizing: border-box; user-select: text; color: #191813; font-family: Roboto, system, -apple-system, sans-serif; font-size: 13px;\"><strong style=\"box-sizing: border-box; user-select: text;\">Granted Spell</strong> @Compendium[pf2e.spells-srd.Chilling Spray]{Chilling Spray}</p>"
        },
        "featType": {
            "value": "classfeature"
        },
        "level": {
            "value": 1
        },
        "location": "",
        "prerequisites": {
            "value": ""
        },
        "rules": [],
        "source": {
            "value": ""
        },
        "traits": {
            "custom": "",
            "rarity": {
                "value": "rare"
            },
            "selected": {
                "witch": "Witch"
            },
            "value": [
                "witch"
            ]
        }
    },
    "effects": [
        {
            "_id": "U2z33zqSEo2r9kTj",
            "changes": [
                {
                    "key": "data.skills.occ.rank",
                    "mode": 4,
                    "value": 1
                }
            ],
            "disabled": false,
            "duration": {
                "rounds": null,
                "seconds": null,
                "startRound": null,
                "startTime": null,
                "startTurn": null,
                "turns": null
            },
            "flags": {},
            "icon": "systems/pf2e/icons/features/classes/baba-yaga-patron.jpg",
            "label": "Baba Yaga Patron",
            "origin": "",
            "tint": "",
            "transfer": true
        }
    ],
    "flags": {},
    "img": "systems/pf2e/icons/features/classes/baba-yaga-patron.jpg",
    "name": "Baba Yaga Patron",
    "permission": {
        "default": 0
    },
    "type": "feat"
}
