{
    "_id": "eNZnx4LISDNftbx2",
    "data": {
        "actionCategory": {
            "value": ""
        },
        "actionType": {
            "value": "passive"
        },
        "actions": {
            "value": ""
        },
        "description": {
            "chat": "",
            "unidentified": "",
            "value": "<p>You concentrate on healing others with alchemy. You start with the formulas for two of the following in your formula book, in addition to your other formulas: &lt;@Compendium[pf2e.equipment-srd.Antidote (Lesser)]{Antidote (Lesser)}, @Compendium[pf2e.equipment-srd.Antiplague (Lesser)]{Antiplague (Lesser)}, or @Compendium[pf2e.equipment-srd.Elixir of Life (Minor)]{Elixir of Life (Minor)}.<br /><br />As long as your proficiency rank in Medicine is trained or better, you can attempt a Crafting check instead of a Medicine check for any of Medicine's untrained and trained uses.</p>\n<h2 class=\"title\">Field Discovery<span style=\"float: right;\">Level 5</span></h2>\n<p>When using advanced alchemy to make elixirs of life during your daily preparations, you can create three elixirs with each batch of reagents instead of two.</p>\n<h2 class=\"title\">Perpetual Infusions<span style=\"float: right;\">Level 7</span></h2>\n<p>Lesser antidote and lesser antiplague.</p>\n<h2 class=\"title\">Perpetual Potency<span style=\"float: right;\">Level 11</span></h2>\n<p>Moderate antidote and antiplague.</p>\n<h2 class=\"title\">Greater Field Discovery<span style=\"float: right;\">Level 13</span></h2>\n<p>When you use Quick Alchemy to create any type of elixir of life, the creature drinking the elixir gains the maximum Hit Points possible for that elixir, instead of rolling to determine the number of Hit Points regained.</p>\n<h2 class=\"title\">Perpetual Perfection<span style=\"float: right;\">Level 17</span></h2>\n<p>Greater antidote and antiplague.</p>"
        },
        "featType": {
            "value": "classfeature"
        },
        "level": {
            "value": 1
        },
        "location": "",
        "prerequisites": {
            "value": ""
        },
        "rules": [],
        "source": {
            "value": ""
        },
        "traits": {
            "custom": "",
            "rarity": {
                "value": "common"
            },
            "value": [
                "alchemist"
            ]
        }
    },
    "effects": [],
    "flags": {},
    "img": "systems/pf2e/icons/features/classes/chirurgeon.jpg",
    "name": "Chirurgeon",
    "permission": {
        "default": 0
    },
    "type": "feat"
}
