{
    "_id": "Ba97T4anGhizfaCt",
    "data": {
        "actionCategory": {
            "value": ""
        },
        "actionType": {
            "value": "passive"
        },
        "actions": {
            "value": ""
        },
        "description": {
            "chat": "",
            "unidentified": "",
            "value": "<p><strong>Alchemist:</strong> Your body has become accustomed to physical hazards and resistant to pathogens and ailments. Your proficiency rank for Fortitude saves increases to master. When you roll a success on a Fortitude save, you get a critical success instead.</p>\n<hr />\n<p><strong>Ranger</strong>: Your body is accustomed to physical hardship and resistant to ailments. Your proficiency rank for Fortitude saves increases to master. When you roll a success on a Fortitude save, you get a critical success instead.</p>"
        },
        "featType": {
            "value": "classfeature"
        },
        "level": {
            "value": 11
        },
        "location": "",
        "prerequisites": [],
        "rules": [
            {
                "key": "PF2E.RuleElement.Note",
                "selector": "fortitude",
                "text": "<p class='compact-text'><strong>{item|name}</strong> When you roll a success on a Fortitude save, you get a critical success instead.</p>"
            }
        ],
        "source": {
            "value": ""
        },
        "traits": {
            "custom": "",
            "rarity": {
                "value": "common"
            },
            "value": [
                "alchemist",
                "ranger"
            ]
        }
    },
    "effects": [
        {
            "_id": "MehnSokuiWHEwuon",
            "changes": [
                {
                    "key": "data.saves.fortitude.rank",
                    "mode": 4,
                    "value": 3
                }
            ],
            "disabled": false,
            "duration": {
                "rounds": null,
                "seconds": null,
                "startRound": null,
                "startTime": null,
                "startTurn": null,
                "turns": null
            },
            "flags": {},
            "icon": "systems/pf2e/icons/features/classes/juggerenaut.jpg",
            "label": "Juggernaut (Level 11)",
            "origin": "",
            "tint": "",
            "transfer": true
        }
    ],
    "flags": {},
    "img": "systems/pf2e/icons/features/classes/juggerenaut.jpg",
    "name": "Juggernaut (Level 11)",
    "permission": {
        "default": 0
    },
    "type": "feat"
}
