{
    "_id": "ejmSQOJR5lJv1pzh",
    "data": {
        "actionCategory": {
            "value": ""
        },
        "actionType": {
            "value": "passive"
        },
        "actions": {
            "value": ""
        },
        "description": {
            "chat": "",
            "unidentified": "",
            "value": "<p>Your patron is one of sigils and symbols, tomes and texts, words and wisdom.</p>\n<p><strong>Spell List</strong> arcane</p>\n<p><strong>Patron Skill</strong> Arcana</p>\n<p><strong>Hex Cantrip</strong> @Compendium[pf2e.spells-srd.Discern Secrets]{Discern Secrets}</p>\n<p><strong>Granted Spell</strong> @Compendium[pf2e.spells-srd.Magic Weapon]{Magic Weapon}</p>"
        },
        "featType": {
            "value": "classfeature"
        },
        "level": {
            "value": 1
        },
        "location": "",
        "prerequisites": {
            "value": ""
        },
        "rules": [],
        "source": {
            "value": ""
        },
        "traits": {
            "custom": "",
            "rarity": {
                "value": "common"
            },
            "value": [
                "witch"
            ]
        }
    },
    "effects": [
        {
            "_id": "kB0aGje2HKRES4q8",
            "changes": [
                {
                    "key": "data.skills.arc.rank",
                    "mode": 4,
                    "value": 1
                }
            ],
            "disabled": false,
            "duration": {
                "rounds": null,
                "seconds": null,
                "startRound": null,
                "startTime": null,
                "startTurn": null,
                "turns": null
            },
            "flags": {},
            "icon": "systems/pf2e/icons/features/classes/rune-patron.jpg",
            "label": "Rune Patron",
            "origin": "",
            "tint": "",
            "transfer": true
        }
    ],
    "flags": {},
    "img": "systems/pf2e/icons/features/classes/rune-patron.jpg",
    "name": "Rune Patron",
    "permission": {
        "default": 0
    },
    "type": "feat"
}
