{
    "_id": "D34mPo29r1J3DPaX",
    "data": {
        "actionCategory": {
            "value": ""
        },
        "actionType": {
            "value": "passive"
        },
        "actions": {
            "value": ""
        },
        "description": {
            "value": "<p>You're trained in martial weapons.</p>"
        },
        "featType": {
            "value": "classfeature"
        },
        "level": {
            "value": 3
        },
        "location": "",
        "prerequisites": [],
        "rules": [],
        "source": {
            "value": ""
        },
        "traits": {
            "custom": "",
            "rarity": {
                "value": "common"
            },
            "value": [
                "cleric"
            ]
        }
    },
    "effects": [],
    "flags": {},
    "img": "systems/pf2e/icons/features/classes/warpriest.jpg",
    "name": "Second Doctrine (Warpriest)",
    "permission": {
        "default": 0
    },
    "type": "feat"
}
