{
    "_id": "sLzPzk7DJnfuORJ0",
    "data": {
        "ability": {
            "value": ""
        },
        "area": {
            "areaType": "",
            "value": null
        },
        "areasize": {
            "value": ""
        },
        "components": {
            "value": ""
        },
        "cost": {
            "value": "rare oils, see Table 7-1"
        },
        "damage": {
            "applyMod": false,
            "value": ""
        },
        "damageType": {
            "value": ""
        },
        "description": {
            "chat": "",
            "unidentified": "",
            "value": "<p>You transform the target into an animated object with a level up to that allowed by Table 7-1 and of a type corresponding to the object (so a broom would become an animated broom).</p>\n<h2>Table 7-1: Creatures Creation Rituals</h2>\n<table class=\"pf2-table\">\n<thead>\n<tr>\n<th>Creature Level</th>\n<th>Spell Level Required</th>\n<th>Cost</th>\n</tr>\n</thead>\n<tbody>\n<tr>\n<td>-1 or 0</td>\n<td>2</td>\n<td>15 gp</td>\n</tr>\n<tr>\n<td>1</td>\n<td>2</td>\n<td>60 gp</td>\n</tr>\n<tr>\n<td>2</td>\n<td>3</td>\n<td>105 gp</td>\n</tr>\n<tr>\n<td>3</td>\n<td>3</td>\n<td>180 gp</td>\n</tr>\n<tr>\n<td>4</td>\n<td>4</td>\n<td>300 gp</td>\n</tr>\n<tr>\n<td>5</td>\n<td>4</td>\n<td>480 gp</td>\n</tr>\n<tr>\n<td>6</td>\n<td>5</td>\n<td>750 gp</td>\n</tr>\n<tr>\n<td>7</td>\n<td>5</td>\n<td>1,080 gp</td>\n</tr>\n<tr>\n<td>8</td>\n<td>6</td>\n<td>1,500 gp</td>\n</tr>\n<tr>\n<td>9</td>\n<td>6</td>\n<td>2,100 gp</td>\n</tr>\n<tr>\n<td>10</td>\n<td>7</td>\n<td>3,000 gp</td>\n</tr>\n<tr>\n<td>11</td>\n<td>7</td>\n<td>4,200 gp</td>\n</tr>\n<tr>\n<td>12</td>\n<td>8</td>\n<td>6,000 gp</td>\n</tr>\n<tr>\n<td>13</td>\n<td>8</td>\n<td>9,000 gp</td>\n</tr>\n<tr>\n<td>14</td>\n<td>9</td>\n<td>13,500 gp</td>\n</tr>\n<tr>\n<td>15</td>\n<td>9</td>\n<td>19,500 gp</td>\n</tr>\n<tr>\n<td>16</td>\n<td>10</td>\n<td>30,000 gp</td>\n</tr>\n<tr>\n<td>17</td>\n<td>10</td>\n<td>45,000 gp</td>\n</tr>\n</tbody>\n</table>\n<p><strong>Critical Success</strong> The target becomes an animated object of the appropriate type. If it's at least 4 levels lower than you, you can make it a minion. This gives it the minion trait, meaning it can use 2 actions when you command it, and commanding it is a single action that has the auditory and concentrate traits. You can have a maximum of four minions under your control. If it doesn't become a minion, you can give it one simple command. It pursues that goal single-mindedly, ignoring any of your subsequent commands.</p>\n<p><strong>Success</strong> As critical success, except an animated object that doesn't become your minion stays in place and attacks anyone that attacks it or tries to steal or move it, rather than following your command.</p>\n<p><strong>Failure</strong> You fail to create the animated object.</p>\n<p><strong>Critical Failure</strong> You create the animated object, but it goes berserk and attempts to destroy you.</p>"
        },
        "duration": {
            "value": ""
        },
        "hasCounteractCheck": {
            "value": false
        },
        "level": {
            "value": 2
        },
        "location": {
            "value": ""
        },
        "materials": {
            "value": ""
        },
        "prepared": {
            "value": ""
        },
        "primarycheck": {
            "value": "Arcana (expert)"
        },
        "range": {
            "value": "10 feet"
        },
        "rules": [],
        "save": {
            "basic": "",
            "value": ""
        },
        "scaling": {
            "formula": "",
            "mode": "none"
        },
        "school": {
            "value": "trs"
        },
        "secondarycasters": {
            "value": "1"
        },
        "secondarycheck": {
            "value": "Crafting"
        },
        "source": {
            "value": ""
        },
        "spellCategorie": {
            "value": "ritual"
        },
        "spellCategory": {
            "value": ""
        },
        "spellType": {
            "value": "utility"
        },
        "sustained": {
            "value": false
        },
        "target": {
            "value": "1 object"
        },
        "time": {
            "value": "1 day"
        },
        "traditions": {
            "custom": "",
            "value": [
                "ritual"
            ]
        },
        "traits": {
            "custom": "",
            "rarity": {
                "value": "uncommon"
            },
            "value": [
                "transmutation"
            ]
        }
    },
    "effects": [],
    "flags": {},
    "img": "systems/pf2e/icons/spells/animate-object.jpg",
    "name": "Animate Object",
    "permission": {
        "default": 0
    },
    "type": "spell"
}
