{
    "_id": "zdb8cjOIDVKYMWdr",
    "data": {
        "ability": {
            "value": ""
        },
        "area": {
            "areaType": "",
            "value": null
        },
        "areasize": {
            "value": ""
        },
        "components": {
            "value": "somatic, verbal"
        },
        "cost": {
            "value": ""
        },
        "damage": {
            "applyMod": false,
            "value": ""
        },
        "damageType": {
            "value": ""
        },
        "description": {
            "chat": "",
            "unidentified": "",
            "value": "<p>You envelop the target in a shroud of shadow. The target perceives light as one step lower than it actually is (bright light becomes dim light, for example), affecting their ability to sense creatures and objects accordingly. The shroud also provides the target a +1 status bonus to saving throws against light effects. While this effect is helpful to creatures sensitive to light, if the creature is unwilling, it can attempt a Reflex save to avoid the shroud and reduce the effect.</p>\n<hr />\n<p><span><strong>Critical Success</strong> The target is unaffected.</span></p>\n<p><span><strong>Success</strong> The effect lasts for 1 round.</span></p>\n<p><span><strong>Failure</strong> The effect lasts its normal duration.</span></p>"
        },
        "duration": {
            "value": "10 minutes"
        },
        "hasCounteractCheck": {
            "value": false
        },
        "level": {
            "value": 1
        },
        "location": {
            "value": ""
        },
        "materials": {
            "value": ""
        },
        "prepared": {
            "value": ""
        },
        "primarycheck": {
            "value": ""
        },
        "range": {
            "value": "30 feet"
        },
        "rules": [],
        "save": {
            "basic": "",
            "value": "reflex"
        },
        "scaling": {
            "formula": "",
            "mode": "none"
        },
        "school": {
            "value": "evo"
        },
        "secondarycasters": {
            "value": ""
        },
        "secondarycheck": {
            "value": ""
        },
        "source": {
            "value": ""
        },
        "spellCategorie": {
            "value": "spell"
        },
        "spellCategory": {
            "value": ""
        },
        "spellType": {
            "value": "save"
        },
        "sustained": {
            "value": false
        },
        "target": {
            "value": "1 creature"
        },
        "time": {
            "value": "2"
        },
        "traditions": {
            "custom": "",
            "value": [
                "arcane",
                "occult"
            ]
        },
        "traits": {
            "custom": "",
            "rarity": {
                "value": "common"
            },
            "value": [
                "darkness",
                "evocation"
            ]
        }
    },
    "effects": [],
    "flags": {},
    "img": "systems/pf2e/icons/spells/penumbral-shroud.jpg",
    "name": "Penumbral Shroud",
    "permission": {
        "default": 0
    },
    "type": "spell"
}
