{
    "_id": "F1nlmqOIucch3Cmt",
    "data": {
        "ability": {
            "value": ""
        },
        "area": {
            "value": ""
        },
        "areasize": {
            "value": ""
        },
        "components": {
            "value": "somatic"
        },
        "cost": {
            "value": ""
        },
        "damage": {
            "applyMod": false,
            "value": ""
        },
        "damageType": {
            "value": ""
        },
        "description": {
            "chat": "",
            "unidentified": "",
            "value": "<p>You open your cloak or create a gap with your hands, drawing the target into a pocket dimension just large enough for its basic comfort. No other creature can enter this extradimensional space, and the target can bring along objects only if they were designed to be worn by a creature of its kind. The space has enough air, food, and water to sustain the target for the duration.</p>\n<p>You can @Compendium[pf2e.actionspf2e.Dismiss]{Dismiss}the spell. The spell also ends if you die or enter an extradimensional space. When the spell ends, the target reappears in the nearest unoccupied space (outside of any extradimensional space you may have entered).</p>"
        },
        "duration": {
            "value": "8 hours"
        },
        "hasCounteractCheck": {
            "value": false
        },
        "level": {
            "value": 1
        },
        "location": {
            "value": ""
        },
        "materials": {
            "value": ""
        },
        "prepared": {
            "value": false
        },
        "primarycheck": {
            "value": ""
        },
        "range": {
            "value": "touch"
        },
        "rules": [],
        "save": {
            "basic": "",
            "value": ""
        },
        "scaling": {
            "formula": "",
            "mode": "none"
        },
        "school": {
            "value": "con"
        },
        "secondarycasters": {
            "value": ""
        },
        "secondarycheck": {
            "value": ""
        },
        "source": {
            "value": ""
        },
        "spellCategorie": {
            "value": "spell"
        },
        "spellCategory": {
            "value": ""
        },
        "spellType": {
            "value": "attack"
        },
        "sustained": {
            "value": false
        },
        "target": {
            "value": "1 willing creature that is your animal companion or familiar"
        },
        "time": {
            "value": "1"
        },
        "traditions": {
            "value": [
                "arcane",
                "divine",
                "occult",
                "primal"
            ]
        },
        "traits": {
            "custom": "",
            "rarity": {
                "value": "common"
            },
            "value": [
                "conjuration",
                "extradimensional"
            ]
        }
    },
    "effects": [],
    "flags": {},
    "img": "systems/pf2e/icons/spells/pet-cache.jpg",
    "name": "Pet Cache",
    "permission": {
        "default": 0
    },
    "type": "spell"
}
