{
    "_id": "h5UqEdeqK8iTcU0J",
    "data": {
        "ability": {
            "value": ""
        },
        "area": {
            "value": ""
        },
        "areasize": {
            "value": ""
        },
        "components": {
            "value": ""
        },
        "cost": {
            "value": "a piece of hair, drop of blood, or other part of  the creature to be duplicated, plus rare oils, minerals, and  pigments with a total value of 300 gp"
        },
        "damage": {
            "applyMod": false,
            "value": ""
        },
        "damageType": {
            "value": ""
        },
        "description": {
            "chat": "",
            "unidentified": "",
            "value": "<p>You create an illusory duplicate of the target creature by animating ice or snow sculpted in its shape. The simulacrum is a 4th-level creature with no special abilities. If it needs to attempt a roll or use a DC, use the moderate number for a monster, except as noted below. It doesn't have any specific memories from the target, but it can use information about the creature gained from any of the casters to Impersonate the target. It looks exactly like the target and has a Deception modifier to @Compendium[pf2e.actionspf2e.Impersonate]{Impersonate} that creature equal to the modifier of the secondary spellcaster who rolled the Deception check, with a +4 status bonus.</p>\n<p>While it doesn't have any of the original's special abilities, like a dragon's breath weapon, the illusions that make up the simulacrum allow it to appear to use those abilities; they just never seem to have an effect. For instance, against a simulacrum dragon's breath weapon, all creatures in the area seem to critically succeed at their saving throws and take no damage. Creatures can attempt to disbelieve the illusion by attempting a Perception check against the Deception DC of the secondary spellcaster who rolled the Deception check.</p>\n<hr />\n<p><strong>Critical Success</strong> You bring the simulacrum to life. It has the minion trait and is under your absolute control. You gain a direct mental link with the simulacrum and can spend an action to command the simulacrum via this link, even at a distance.</p>\n<p><strong>Success</strong> As a critical success, but there is no special link between you and the simulacrum. You must spend an action to command it verbally or by some other means.</p>\n<p><strong>Failure</strong> The ritual fails and has no effect.</p>\n<p><strong>Critical Failure</strong> The simulacrum awakens, but it isn't your minion and is hostile to all the casters. It does everything it can to destroy them, but if it can't immediately slay them, the simulacrum tries to escape and plots their demise.</p>"
        },
        "duration": {
            "value": ""
        },
        "hasCounteractCheck": {
            "value": false
        },
        "level": {
            "value": 4
        },
        "location": {
            "value": ""
        },
        "materials": {
            "value": ""
        },
        "prepared": {
            "value": ""
        },
        "primarycheck": {
            "value": "Arcana or Occultism (master, the check has the  secret trait"
        },
        "range": {
            "value": ""
        },
        "rules": [],
        "save": {
            "basic": "",
            "value": ""
        },
        "scaling": {
            "formula": "",
            "mode": "none"
        },
        "school": {
            "value": "ill"
        },
        "secondarycasters": {
            "value": "3"
        },
        "secondarycheck": {
            "value": "rcana, Nature, Occultism,  Religion, or Society (whichever is required to Recall Knowledge  about the creature being duplicated); Crafting; Deception"
        },
        "source": {
            "value": ""
        },
        "spellCategorie": {
            "value": "ritual"
        },
        "spellCategory": {
            "value": ""
        },
        "spellType": {
            "value": "utility"
        },
        "sustained": {
            "value": false
        },
        "target": {
            "value": "1 living creature"
        },
        "time": {
            "value": "1 day"
        },
        "traditions": {
            "value": []
        },
        "traits": {
            "custom": "",
            "rarity": {
                "value": "rare"
            },
            "value": [
                "illusion"
            ]
        }
    },
    "effects": [],
    "flags": {},
    "img": "systems/pf2e/icons/spells/simulacrum.jpg",
    "name": "Simulacrum",
    "permission": {
        "default": 0
    },
    "type": "spell"
}
