{
    "_id": "LrhTFHUtSS9ahogL",
    "data": {
        "ability": {
            "value": ""
        },
        "area": {
            "areaType": "",
            "value": null
        },
        "areasize": {
            "value": ""
        },
        "components": {
            "value": "somatic, verbal"
        },
        "cost": {
            "value": ""
        },
        "damage": {
            "applyMod": false,
            "value": ""
        },
        "damageType": {
            "value": ""
        },
        "description": {
            "chat": "",
            "unidentified": "",
            "value": "<p>You add power to your muscles, allowing you to swim or climb walls with ease.</p>\n<p>When you cast this spell, you gain either a climb Speed or a swim Speed. The Speed is equal to your land Speed.</p>\n<hr />\n<p><strong>Heightened (5th)</strong> You can choose to gain a fly Speed.</p><p>@Compendium[pf2e.spell-effects.Spell Effect: Traveler's Transit (Climb)]{Spell Effect: Traveler's Transit (Climb)}</p>\n<p>@Compendium[pf2e.spell-effects.Spell Effect: Traveler's Transit (Swim)]{Spell Effect: Traveler's Transit (Swim)}</p>\n<p>@Compendium[pf2e.spell-effects.Spell Effect: Traveler's Transit (Fly)]{Spell Effect: Traveler's Transit (Fly)}</p>"
        },
        "duration": {
            "value": "1 minute"
        },
        "hasCounteractCheck": {
            "value": false
        },
        "level": {
            "value": 4
        },
        "location": {
            "value": ""
        },
        "materials": {
            "value": ""
        },
        "prepared": {
            "value": ""
        },
        "primarycheck": {
            "value": ""
        },
        "range": {
            "value": ""
        },
        "rules": [],
        "save": {
            "basic": "",
            "value": ""
        },
        "scaling": {
            "formula": "",
            "mode": "none"
        },
        "school": {
            "value": "evo"
        },
        "secondarycasters": {
            "value": ""
        },
        "secondarycheck": {
            "value": ""
        },
        "source": {
            "value": ""
        },
        "spellCategorie": {
            "value": "focus"
        },
        "spellCategory": {
            "value": ""
        },
        "spellType": {
            "value": "utility"
        },
        "sustained": {
            "value": false
        },
        "target": {
            "value": ""
        },
        "time": {
            "value": "2"
        },
        "traditions": {
            "value": [
                "focus"
            ]
        },
        "traits": {
            "custom": "",
            "rarity": {
                "value": "uncommon"
            },
            "value": [
                "cleric",
                "evocation"
            ]
        }
    },
    "effects": [],
    "flags": {},
    "img": "systems/pf2e/icons/spells/travelers-transit.jpg",
    "name": "Traveler's Transit",
    "permission": {
        "default": 0
    },
    "type": "spell"
}
