{
    "_id": "Er9XNUlL0wB0PM36",
    "data": {
        "ability": {
            "value": ""
        },
        "area": {
            "value": ""
        },
        "areasize": {
            "value": "100 feet × 100 feet, up to 50 feet high"
        },
        "components": {
            "value": ""
        },
        "cost": {
            "value": "rare incenses, oils, and powdered silver, worth  150 gp total"
        },
        "damage": {
            "applyMod": false,
            "value": ""
        },
        "damageType": {
            "value": ""
        },
        "description": {
            "chat": "",
            "unidentified": "",
            "value": "<p>This ritual has long been used to guard the private sanctums of powerful rulers, spellcasters, and other figures of import. You and the other casters spend the casting time burning incense, anointing doorframes, and drawing lines of powered silver across entryways. The ritual creates the following magical effects within the area; these effects are heightened to the level of ward domain and remain throughout the duration.</p>\n<p>All gates, doors, windows, and similar apertures in the area (if any) are locked, with the effects of @Compendium[pf2e.spells-srd.Lock]{Lock}. In addition, you can obscure up to six doors, doorways, or similar entrances within the area with the effects of @Compendium[pf2e.spells-srd.Illusory Object]{Illusory Object} to appear as plain walls. @Compendium[pf2e.spells-srd.Scrying]{Scrying} spells can't perceive any stimuli from the area, and ward domain attempts to counteract @Compendium[pf2e.spells-srd.Teleport]{Teleportation} effects into or out of the area, including attempts to summon creatures into the area, using a modifier equal to the ritual's save DC - 10.</p>\n<p>A successful @Compendium[pf2e.spells-srd.Dispel Magic]{Dispel Magic} used on a specific effect removes only that effect (such as the lock effect on one window). A successful @Compendium[pf2e.spells-srd.Disjunction]{Disjunction} ends the entire ritual.</p>\n<hr />\n<p><strong>Critical Success</strong> You create the effects described above, and you protect an area twice as large.</p>\n<p><strong>Success</strong> You create the effects described above.</p>\n<p><strong>Failure</strong> The ritual has no effect.</p>\n<p><strong>Critical Failure</strong> The area becomes trapped and hostile to you and your allies in a way you didn't anticipate.</p>\n<hr />\n<p><strong>Heightened (+1)</strong> The ward covers an additional area 100 feet × 100 feet, up to 50 feet high, which must be contiguous with the original area.</p>"
        },
        "duration": {
            "value": "1 week"
        },
        "hasCounteractCheck": {
            "value": false
        },
        "level": {
            "value": 6
        },
        "location": {
            "value": ""
        },
        "materials": {
            "value": ""
        },
        "prepared": {
            "value": ""
        },
        "primarycheck": {
            "value": "Arcana, Nature, or Occultism (master)"
        },
        "range": {
            "value": ""
        },
        "rules": [],
        "save": {
            "basic": "",
            "value": ""
        },
        "scaling": {
            "formula": "",
            "mode": "none"
        },
        "school": {
            "value": "abj"
        },
        "secondarycasters": {
            "value": "3"
        },
        "secondarycheck": {
            "value": "Lore (any), Survival, Thievery"
        },
        "source": {
            "value": ""
        },
        "spellCategorie": {
            "value": "ritual"
        },
        "spellCategory": {
            "value": ""
        },
        "spellType": {
            "value": "utility"
        },
        "sustained": {
            "value": false
        },
        "target": {
            "value": ""
        },
        "time": {
            "value": "1 day"
        },
        "traditions": {
            "value": []
        },
        "traits": {
            "custom": "",
            "rarity": {
                "value": "uncommon"
            },
            "value": [
                "abjuration"
            ]
        }
    },
    "effects": [],
    "flags": {},
    "img": "systems/pf2e/icons/spells/ward-domain.jpg",
    "name": "Ward Domain",
    "permission": {
        "default": 0
    },
    "type": "spell"
}
