{
    "_id": "VgL18yU7pysdoZZG",
    "data": {
        "actionCategory": {
            "value": ""
        },
        "actionType": {
            "value": "passive"
        },
        "actions": {
            "value": ""
        },
        "description": {
            "value": "<p>Your body was originally designed to create works of art, complex tools, or maintain advanced machinery. You become trained in Crafting (or another skill if you’re already trained in Crafting), and you gain the Specialty Crafting skill feat in a specialty of your choice.</p>\n<hr />\n<ul>\n<li>@Compendium[pf2e.feats-srd.Specialty Crafting (Alchemy)]{Specialty Crafting (Alchemy)}</li>\n<li>@Compendium[pf2e.feats-srd.Specialty Crafting (Artistry)]{Specialty Crafting (Artistry)}</li>\n<li>@Compendium[pf2e.feats-srd.Specialty Crafting (Blacksmithing)]{Specialty Crafting (Blacksmithing)}</li>\n<li>@Compendium[pf2e.feats-srd.Specialty Crafting (Bookmaking)]{Specialty Crafting (Bookmaking)}</li>\n<li>@Compendium[pf2e.feats-srd.Specialty Crafting (Glassmaking)]{Specialty Crafting (Glassmaking)}</li>\n<li>@Compendium[pf2e.feats-srd.Specialty Crafting (Leatherworking)]{Specialty Crafting (Leatherworking)}</li>\n<li>@Compendium[pf2e.feats-srd.Specialty Crafting (Pottery)]{Specialty Crafting (Pottery)}</li>\n<li>@Compendium[pf2e.feats-srd.Specialty Crafting (Shipbuilding)]{Specialty Crafting (Shipbuilding)}</li>\n<li>@Compendium[pf2e.feats-srd.Specialty Crafting (Stonemasonry)]{Specialty Crafting (Stonemasonry)}</li>\n<li>@Compendium[pf2e.feats-srd.Specialty Crafting (Tailoring)]{Specialty Crafting (Tailoring)}</li>\n<li>@Compendium[pf2e.feats-srd.Specialty Crafting (Weaving)]{Specialty Crafting (Weaving)}</li>\n<li>@Compendium[pf2e.feats-srd.Specialty Crafting (Woodworking)]{Specialty Crafting (Woodworking)}</li>\n</ul>"
        },
        "featType": {
            "value": "heritage"
        },
        "level": {
            "value": 1
        },
        "location": "",
        "prerequisites": [],
        "rules": [],
        "source": {
            "value": ""
        },
        "traits": {
            "custom": "",
            "rarity": {
                "value": "common"
            },
            "value": [
                "android"
            ]
        }
    },
    "effects": [],
    "flags": {},
    "img": "systems/pf2e/icons/default-icons/feat.svg",
    "name": "Artisan Android",
    "permission": {
        "default": 0
    },
    "type": "feat"
}
