{
    "_id": "G8jfMayPv4vZvAVr",
    "data": {
        "actionCategory": {
            "value": ""
        },
        "actionType": {
            "value": "passive"
        },
        "actions": {
            "value": ""
        },
        "description": {
            "value": "<p>You are descended from air elementals or were born under the element’s influence. You gain the sylph trait, in addition to the traits from your ancestry. You also gain @Compendium[pf2e.ancestryfeatures.Low-Light Vision]{Low-Light Vision} or @Compendium[pf2e.ancestryfeatures.Darkvision]{Darkvision} if your ancestry already has low-light vision. You can choose from sylph feats and feats from your ancestry whenever you gain an ancestry feat.</p>\n<hr />\n<p>GENIEKIN FEATS</p>\n<p>At 1st level, you gain one ancestry feat, and you gain an additional ancestry feat every 4 levels thereafter (at 5th, 9th, 13th, and 17th levels). As a geniekin you can choose from among the following ancestry feats, in addition to those available to your specific geniekin heritage and your ancestry.</p>"
        },
        "featType": {
            "value": "heritage"
        },
        "level": {
            "value": 1
        },
        "location": "",
        "prerequisites": [],
        "rules": [],
        "source": {
            "value": ""
        },
        "traits": {
            "custom": "",
            "rarity": {
                "value": "uncommon"
            },
            "value": [
                "geniekin",
                "sylph",
                "versatile heritage"
            ]
        }
    },
    "effects": [],
    "flags": {},
    "img": "systems/pf2e/icons/default-icons/feat.svg",
    "name": "Sylph",
    "permission": {
        "default": 0
    },
    "type": "feat"
}
