{
    "_id": "m9rrlchS10xHFA2G",
    "data": {
        "actionCategory": {
            "value": ""
        },
        "actionType": {
            "value": "passive"
        },
        "actions": {
            "value": ""
        },
        "description": {
            "chat": "",
            "unidentified": "",
            "value": "<p>A vestigial spur in your tail secretes one dose of deadly<br />venom each day. You gain the @Compendium[pf2e.actionspf2e.Tail Toxin]{Tail Toxin}action.</p>"
        },
        "featType": {
            "value": "heritage"
        },
        "level": {
            "value": 1
        },
        "prerequisites": [],
        "rules": [],
        "source": {
            "value": ""
        },
        "traits": {
            "custom": "",
            "rarity": {
                "value": "common"
            },
            "value": [
                "kobold"
            ]
        }
    },
    "effects": [],
    "flags": {},
    "img": "systems/pf2e/icons/features/ancestry/venomtail-kobold.jpg",
    "name": "Venomtail Kobold",
    "permission": {
        "default": 0
    },
    "type": "feat"
}
