{
    "_id": "2QzXBsURLO7xECxO",
    "data": {
        "actionCategory": {
            "value": ""
        },
        "actionType": {
            "value": "passive"
        },
        "actions": {
            "value": ""
        },
        "description": {
            "chat": "",
            "unidentified": "",
            "value": "<p><strong>[Slotless][Limited Use]</strong> □</p>\n<p><strong>Prerequisites</strong>: You have an animal companion</p>\n<p><strong>Effect</strong>: If you have an animal companion, you can check the box between adventures to replace it with the fiery leopard. You may also transfer this boon to one of your other characters who has an animal companion, immediately replacing that character's existing companion with the fiery leopard; keep a copy of your Chronicle with that character.</p>"
        },
        "featType": {
            "value": "pfsboon"
        },
        "level": {
            "value": "0"
        },
        "prerequisites": {
            "value": ""
        },
        "rules": [],
        "source": {
            "value": ""
        },
        "traits": {
            "custom": "",
            "rarity": {
                "value": "common"
            },
            "selected": {},
            "value": []
        }
    },
    "effects": [],
    "flags": {},
    "img": "systems/pf2e/icons/default-icons/mystery-man.png",
    "name": "FoP - Fiery Companion",
    "permission": {
        "default": 0
    },
    "type": "feat"
}
