{
    "_id": "Sc9gT40T28tFhSzq",
    "data": {
        "actionCategory": {
            "value": ""
        },
        "actionType": {
            "value": "passive"
        },
        "actions": {
            "value": ""
        },
        "description": {
            "chat": "",
            "unidentified": "",
            "value": "<p><strong>[Faction]</strong></p>\n<p><strong>Prerequisites:</strong> Tier 2 with the Horizon Hunters, @Compendium[pf2e.pathfinder-society-boons.Horizon Hunters Champion]{Horizon Hunters Champion}</p>\n<p><strong>Cost</strong>: 8 Fame</p>\n<p><strong>Effect</strong>: This faction boon represents your expanding connections in the Horizon Hunters faction. While you have this boon slotted, you gain Reputation with the faction after a successfully completed adventure, as detailed in its Primary and Secondary Objectives.</p>\n<p>In addition, when you slot this boon, you gain one additional boon slot during the adventure. You can use this additional boon slot only for a boon whose prerequisite includes a Horizon Hunters faction tier of 1, 2, or 3.</p>\n<p><strong>Normal</strong>: A character gains no Reputation unless they have a faction boon slotted.</p>"
        },
        "featType": {
            "value": "pfsboon"
        },
        "level": {
            "value": "0"
        },
        "prerequisites": {
            "value": ""
        },
        "rules": [],
        "source": {
            "value": ""
        },
        "traits": {
            "custom": "",
            "rarity": {
                "value": "common"
            },
            "selected": {},
            "value": []
        }
    },
    "effects": [],
    "flags": {},
    "img": "systems/pf2e/icons/default-icons/mystery-man.png",
    "name": "Horizon Hunters Champion, Improved",
    "permission": {
        "default": 0
    },
    "type": "feat"
}
