{
    "_id": "ZX2dP4rP01qaCJh4",
    "data": {
        "attributes": {
            "ac": {
                "value": 21
            },
            "hardness": 12,
            "hasHealth": true,
            "hp": {
                "details": "; <b>Spout Hardness</b> 8, <b>SpoutHP</b> 32 (BT 16)",
                "max": 48,
                "temp": 0,
                "tempmax": 0,
                "value": 48
            },
            "stealth": {
                "details": "(trained); the DC to notice the protoplasmic extruder is 0",
                "value": 0
            }
        },
        "creatureType": "",
        "customModifiers": {},
        "details": {
            "description": "A spherical contraption of metal and reinforced hoses 20 feet in diameter, the protoplasmic extruder drawsin the arcane slurry from Quantium's sewers and magically transforms the slurry into dangerous oozes",
            "disable": "Occultism DC 22 (expert) twice or Thievery DC 24 (expert) causes it to lose its action on its next turn. Two successes (or one critical success) disables it completely; dispel magic (3rd level; counteract DC 20) causes the protoplasmic extruder to lose its action on its next turn but never disables it.",
            "isComplex": true,
            "level": 3,
            "reset": "The protoplasmic extruder must gather reagents from the arcane slurry of the sewers for 24 hours before it can be reactivated.",
            "routine": "On its initiative, the trap creates an ooze in an adjacent unoccupied space. The first time the protoplasmic extruder uses this action, it creates a gelatinous cube (Pathfinder Bestiary 254) that acts immediately and thereafter acts on the protoplasmic extruder's initiative. In following rounds, the protoplasmic extruder instead creates sewer oozes (Pathfinder Bestiary 254) that act in the same manner. Oozes created by the protoplasmic extruder are a nacreous green color; a gelatinous cube loses its transparent ability. All oozes created by the protoplasmic extruder are loyal to the Ohrlavis and act as they command. \n The protoplasmic extruder can create no more than four oozes in total before it deactivates and resets."
        },
        "flavourText": "",
        "nethysUrl": "",
        "recallKnowledgeText": "",
        "saves": {
            "fortitude": {
                "rank": 0,
                "saveDetail": "",
                "value": 10
            },
            "reflex": {
                "rank": 0,
                "saveDetail": "",
                "value": 12
            },
            "will": {
                "rank": 0,
                "saveDetail": "",
                "value": 0
            }
        },
        "schema": {
            "version": {
                "value": ""
            }
        },
        "sidebarText": "",
        "source": {
            "value": ""
        },
        "statusEffects": [],
        "traits": {
            "ci": [],
            "di": {
                "custom": "",
                "selected": {},
                "value": [
                    "critical-hits",
                    "object-immunities",
                    "precision"
                ]
            },
            "dr": [],
            "dv": [],
            "rarity": {
                "value": "common"
            },
            "traits": {
                "custom": "",
                "value": [
                    "magical",
                    "mechanical"
                ]
            }
        }
    },
    "effects": [],
    "flags": {},
    "img": "systems/pf2e/icons/default-icons/hazard.svg",
    "items": [
        {
            "_id": "71j8rIykcKntxLJQ",
            "data": {
                "actionCategory": {
                    "value": ""
                },
                "actionType": {
                    "value": "reaction"
                },
                "actions": {
                    "value": ""
                },
                "description": {
                    "chat": "",
                    "unidentified": "",
                    "value": "<p><strong>Trigger</strong> Bijan or Zaynap Ohrlavi can speak and rolls initiative when within 60 feet of the protoplasmic extruder.</p>\n<p><strong>Effect</strong> The protoplasmic extruder begins chugging more loudly and rolls initiative.</p>"
                },
                "requirements": {
                    "value": ""
                },
                "rules": [],
                "source": {
                    "value": ""
                },
                "traits": {
                    "custom": "",
                    "rarity": {
                        "value": "common"
                    },
                    "value": []
                },
                "trigger": {
                    "value": ""
                },
                "usage": {
                    "value": "held-in-one-hand"
                },
                "weapon": {
                    "value": ""
                }
            },
            "effects": [],
            "flags": {
                "pdfoundry-pf2e": {
                    "source": ""
                }
            },
            "img": "systems/pf2e/icons/actions/Reaction.png",
            "name": "Creator's Command",
            "sort": 100000,
            "type": "action"
        }
    ],
    "name": "Protoplasmic Extruder",
    "permission": {
        "default": 0
    },
    "token": {
        "actorId": "ZX2dP4rP01qaCJh4",
        "actorLink": false,
        "bar1": {
            "attribute": "attributes.hp"
        },
        "bar2": {},
        "brightLight": 0,
        "brightSight": 0,
        "dimLight": 0,
        "dimSight": 0,
        "displayBars": 20,
        "displayName": 20,
        "disposition": -1,
        "flags": {},
        "height": 1,
        "img": "systems/pf2e/icons/default-icons/hazard.svg",
        "lightAlpha": 1,
        "lightAngle": 360,
        "lightAnimation": {
            "intensity": 5,
            "speed": 5
        },
        "lockRotation": false,
        "name": "Drowning Pit",
        "randomImg": false,
        "rotation": 0,
        "scale": 1,
        "sightAngle": 360,
        "tint": null,
        "vision": false,
        "width": 1
    },
    "type": "hazard"
}
